Division,WeightClassKg,Place,Name,Team,BodyweightKg,Best3SquatKg,Best3BenchKg,Best3DeadliftKg,TotalKg,Equipment,Event,Sex,BirthDate
Boys,51.71,1,Jaime Montoya,Abernathy,49.44,97.52,63.5,124.74,285.76,Single-ply,SBD,M,
Boys,55.79,1,Rj Lopez,Levelland,55.79,136.08,86.18,154.22,376.48,Single-ply,SBD,M,
Boys,55.79,2,Michael Salazar,Sundown,52.62,133.81,74.84,145.15,353.8,Single-ply,SBD,M,
Boys,55.79,3,Fabian Viernes,Bovina,55.34,120.2,86.18,145.15,351.53,Single-ply,SBD,M,
Boys,55.79,4,Ceasar Amaya,Bovina,53.52,120.2,70.31,136.08,326.59,Single-ply,SBD,M,
Boys,55.79,5,Zaden Carrillo,Levelland,54.88,83.91,58.97,111.13,254.01,Single-ply,SBD,M,
Boys,55.79,DQ,Riley Rodriguez,Whiteface,54.43,81.65,,,,Single-ply,SBD,M,
Boys,59.87,1,Eric Cruz,Lubbock Roosevelt,59.42,167.83,108.86,172.37,449.06,Single-ply,SBD,M,
Boys,59.87,2,Ethan Martinez,Wolfforth Frenship,58.6,156.49,95.25,170.1,421.84,Single-ply,SBD,M,
Boys,59.87,3,Kyndle Esparza,Seagraves,58.24,142.88,79.38,151.95,374.21,Single-ply,SBD,M,
Boys,59.87,4,Jovany Salazar,Bovina,57.15,115.67,72.57,140.61,328.85,Single-ply,SBD,M,
Boys,59.87,5,Miguel Lopez,Bovina,59.87,111.13,86.18,131.54,328.85,Single-ply,SBD,M,
Boys,59.87,6,Calvin Carpenter,Lubbock All Saints School,59.42,104.33,68.04,149.69,322.05,Single-ply,SBD,M,
Boys,59.87,7,Jorge Garcia,Friona,58.51,120.2,72.57,120.2,312.98,Single-ply,SBD,M,
Boys,59.87,8,Patricio Garcia,Brownfield,58.06,106.59,52.16,115.67,274.42,Single-ply,SBD,M,
Boys,59.87,9,Kyler Neill,Wellman-Union,58.06,90.72,52.16,104.33,247.21,Single-ply,SBD,M,
Boys,59.87,10,Gabriel Ramos,Friona,56.25,86.18,58.97,92.99,238.14,Single-ply,SBD,M,
Boys,59.87,11,Eric Estrada,Friona,58.51,86.18,52.16,99.79,238.14,Single-ply,SBD,M,
Boys,67.13,1,Angel Camero,Levelland,64.86,161.03,95.25,185.97,442.25,Single-ply,SBD,M,
Boys,67.13,2,Jacob Amesquita,Seagraves,66.68,136.08,83.91,145.15,365.14,Single-ply,SBD,M,
Boys,67.13,3,Jermaine Stotts,Wolfforth Frenship,62.32,113.4,68.04,151.95,333.39,Single-ply,SBD,M,
Boys,67.13,4,Austin Simmons,Slaton,61.87,106.59,77.11,117.93,301.64,Single-ply,SBD,M,
Boys,67.13,5,Robert Ramirez,Wellman-Union,60.78,92.99,52.16,117.93,263.08,Single-ply,SBD,M,
Boys,67.13,6,Michael Nieto,Bovina,65.32,97.52,45.36,97.52,240.4,Single-ply,SBD,M,
Boys,67.13,DQ,Ayden Wisniewski,Lubbock All Saints School,65.77,,,,,Single-ply,SBD,M,
Boys,67.13,DQ,Caleb Hillin,Lubbock All Saints School,67.13,165.56,,,,Single-ply,SBD,M,
Boys,67.13,DQ,Alexander Gutierrez #1,Tahoka,63.32,,,,,Single-ply,SBD,M,
Boys,74.84,1,Rickey Melendez,Sundown,69.76,190.51,117.93,188.24,496.68,Single-ply,SBD,M,
Boys,74.84,2,Francisco Garza,Brownfield,74.39,188.24,117.93,176.9,483.08,Single-ply,SBD,M,
Boys,74.84,3,CJ Anzley,Slaton,73.66,170.1,115.67,192.78,478.54,Single-ply,SBD,M,
Boys,74.84,4,Bryson Salazar,Slaton,73.94,145.15,127.01,174.63,446.79,Single-ply,SBD,M,
Boys,74.84,5,Hunter Tindol,Sundown,73.57,154.22,102.06,181.44,437.72,Single-ply,SBD,M,
Boys,74.84,6,Collin Simmons,Slaton,69.67,149.69,111.13,151.95,412.77,Single-ply,SBD,M,
Boys,74.84,7,Devon Campbell,Whiteface,73.48,163.29,86.18,163.29,412.77,Single-ply,SBD,M,
Boys,74.84,8,Thomas Sullivan,Tahoka,67.68,140.61,83.91,163.29,387.82,Single-ply,SBD,M,
Boys,74.84,9,Xuan Garcia,Friona,69.85,136.08,92.99,158.76,387.82,Single-ply,SBD,M,
Boys,74.84,10,Eden Hernandez,Brownfield,74.39,140.61,88.45,147.42,376.48,Single-ply,SBD,M,
Boys,74.84,11,Tyler Campbell,Whiteface,70.76,145.15,68.04,154.22,367.41,Single-ply,SBD,M,
Boys,74.84,12,Eusubio Garcia,Brownfield,74.39,136.08,74.84,145.15,356.07,Single-ply,SBD,M,
Boys,74.84,13,Diego Garcia,Bovina,71.21,124.74,74.84,147.42,347,Single-ply,SBD,M,
Boys,74.84,14,Jayden Garcia,Slaton,74.48,120.2,81.65,145.15,347,Single-ply,SBD,M,
Boys,74.84,15,Quincy Graham,Slaton,67.4,124.74,77.11,140.61,342.46,Single-ply,SBD,M,
Boys,74.84,16,Avel Sinclair,Abernathy,68.04,117.93,86.18,133.81,337.93,Single-ply,SBD,M,
Boys,74.84,17,Matthew Landin,Wolfforth Frenship,71.03,127.01,68.04,140.61,335.66,Single-ply,SBD,M,
Boys,74.84,18,Elijah Munoz,Levelland,71.67,111.13,74.84,142.88,328.85,Single-ply,SBD,M,
Boys,74.84,19,Stephen Hernandez,Tahoka,69.76,111.13,65.77,145.15,322.05,Single-ply,SBD,M,
Boys,74.84,20,Ethan Kauffman,Whiteface,71.67,117.93,74.84,113.4,306.17,Single-ply,SBD,M,
Boys,74.84,21,Jackson Gibbs,Levelland,68.49,72.57,52.16,136.08,260.82,Single-ply,SBD,M,
Boys,74.84,22,Damion Reyes,Levelland,74.39,83.91,70.31,102.06,256.28,Single-ply,SBD,M,
Boys,82.1,1,Alex Trevino,Lubbock Roosevelt,81.19,254.01,129.27,254.01,637.3,Single-ply,SBD,M,
Boys,82.1,2,Kevin Garcia,Sundown,82.1,240.4,165.56,231.33,637.3,Single-ply,SBD,M,
Boys,82.1,3,Nate Gensler,Lubbock Roosevelt,81.65,226.8,136.08,215.46,578.33,Single-ply,SBD,M,
Boys,82.1,4,EJ Hernandez,Sundown,79.11,210.92,138.35,201.85,551.11,Single-ply,SBD,M,
Boys,82.1,5,Luke Brooker,Whiteface,80.74,174.63,117.93,183.7,476.27,Single-ply,SBD,M,
Boys,82.1,6,Luke Pompa,Levelland,80.29,176.9,108.86,165.56,451.32,Single-ply,SBD,M,
Boys,82.1,7,Christian Smith,Levelland,78.02,151.95,104.33,185.97,442.25,Single-ply,SBD,M,
Boys,82.1,8,Tony Rodriguez,Friona,76.57,158.76,95.25,163.29,417.3,Single-ply,SBD,M,
Boys,82.1,9,Brooks Burns,Lubbock All Saints School,80.74,136.08,81.65,170.1,387.82,Single-ply,SBD,M,
Boys,82.1,10,Jarrett White,Friona,75.02,133.81,86.18,145.15,365.14,Single-ply,SBD,M,
Boys,82.1,11,Keagon Dominguez,Wellman-Union,77.56,142.88,81.65,136.08,360.61,Single-ply,SBD,M,
Boys,82.1,12,Jd O'Briant,Wellman-Union,74.93,129.27,68.04,151.95,349.27,Single-ply,SBD,M,
Boys,82.1,13,Zach Long,Wolfforth Frenship,81.56,127.01,81.65,136.08,344.73,Single-ply,SBD,M,
Boys,82.1,14,Elian Munoz,Bovina,78.93,122.47,74.84,122.47,319.78,Single-ply,SBD,M,
Boys,82.1,15,Jeremy Soliz,Whiteface,79.38,113.4,63.5,136.08,312.98,Single-ply,SBD,M,
Boys,82.1,16,Stephen Jenkins,Brownfield,81.65,108.86,61.23,122.47,292.57,Single-ply,SBD,M,
Boys,82.1,17,Joe Ramirez,Levelland,80.29,79.38,65.77,136.08,281.23,Single-ply,SBD,M,
Boys,82.1,18,David Hernandez,Tahoka,75.11,88.45,63.5,124.74,276.69,Single-ply,SBD,M,
Boys,89.81,1,Trent Wright,Slaton,89.18,195.04,115.67,199.58,510.29,Single-ply,SBD,M,
Boys,89.81,2,Austin Ferriera,Brownfield,88.45,183.7,117.93,181.44,483.08,Single-ply,SBD,M,
Boys,89.81,3,Darian DeLaRosa,Bovina,86.18,176.9,97.52,176.9,451.32,Single-ply,SBD,M,
Boys,89.81,4,Anthony Unger,Wellman-Union,82.83,158.76,102.06,165.56,426.38,Single-ply,SBD,M,
Boys,89.81,5,Reese Roberts,Wolfforth Frenship,83.46,142.88,106.59,170.1,419.57,Single-ply,SBD,M,
Boys,89.81,6,Jaxon Rodriguez,Sundown,84.64,131.54,90.72,174.63,396.89,Single-ply,SBD,M,
Boys,89.81,7,Brady Barcheers,Tahoka,85.46,131.54,95.25,151.95,378.75,Single-ply,SBD,M,
Boys,89.81,8,Donovan Almager,Whiteface,89.81,111.13,70.31,113.4,294.84,Single-ply,SBD,M,
Boys,89.81,9,Angel Saucedo,Friona,84.37,122.47,68.04,102.06,292.57,Single-ply,SBD,M,
Boys,89.81,DQ,Yandel DeLeon,Bovina,88,124.74,,,,Single-ply,SBD,M,
Boys,89.81,DQ,Jose Gonzales,Brownfield,89.81,,,,,Single-ply,SBD,M,
Boys,89.81,DQ,CJ Linarez,Slaton,82.28,170.1,,,,Single-ply,SBD,M,
Boys,99.79,1,JJ Diaz,Lubbock Roosevelt,91.63,272.16,158.76,249.48,680.39,Single-ply,SBD,M,
Boys,99.79,2,Andrew Hernandez,Sundown,97.16,244.94,151.95,215.46,612.35,Single-ply,SBD,M,
Boys,99.79,3,Thomas Sanchez,Lubbock Roosevelt,98.43,226.8,140.61,197.31,564.72,Single-ply,SBD,M,
Boys,99.79,4,Daniel Leyva,Slaton,98.79,226.8,136.08,188.24,551.11,Single-ply,SBD,M,
Boys,99.79,5,Landin Noey,Lubbock Roosevelt,97.07,183.7,113.4,181.44,478.54,Single-ply,SBD,M,
Boys,99.79,6,Joe Pena,Levelland,95.71,167.83,102.06,158.76,428.64,Single-ply,SBD,M,
Boys,99.79,7,Jadon McAdams,Sundown,93.89,163.29,108.86,154.22,426.38,Single-ply,SBD,M,
Boys,99.79,8,Christian Annett,Bovina,90.45,136.08,90.72,181.44,408.23,Single-ply,SBD,M,
Boys,99.79,9,Mason Dawson,Lubbock All Saints School,93.89,172.37,79.38,156.49,408.23,Single-ply,SBD,M,
Boys,99.79,10,Damian Casteneda,Whiteface,98.43,149.69,63.5,172.37,385.55,Single-ply,SBD,M,
Boys,99.79,11,Zayden Morin,Brownfield,99.79,142.88,92.99,142.88,378.75,Single-ply,SBD,M,
Boys,99.79,12,Gabe Abarca,Friona,90.81,136.08,88.45,133.81,358.34,Single-ply,SBD,M,
Boys,99.79,13,Colten Watts,Wolfforth Frenship,91.17,117.93,72.57,117.93,308.44,Single-ply,SBD,M,
Boys,99.79,DQ,Rylee Davidson,Whiteface,91.17,151.95,,,,Single-ply,SBD,M,
Boys,109.77,1,Andy Castillo,Sundown,108.5,242.67,145.15,244.94,632.76,Single-ply,SBD,M,
Boys,109.77,2,Logan Castaneda,Meadow,104.6,167.83,102.06,195.04,464.93,Single-ply,SBD,M,
Boys,109.77,3,Ishmael Flores,Friona,102.97,183.7,90.72,183.7,458.13,Single-ply,SBD,M,
Boys,109.77,4,Seth Alred,Abernathy,107.05,179.17,106.59,170.1,455.86,Single-ply,SBD,M,
Boys,109.77,5,Zed Mendez,Whiteface,102.06,170.1,104.33,167.83,442.25,Single-ply,SBD,M,
Boys,109.77,6,Chris Arrington,Tahoka,107.23,142.88,97.52,170.1,410.5,Single-ply,SBD,M,
Boys,109.77,7,Chase Pickering,Levelland,109.77,145.15,81.65,140.61,367.41,Single-ply,SBD,M,
Boys,109.77,8,Austin Reyes,Sundown,104.78,113.4,81.65,158.76,353.8,Single-ply,SBD,M,
Boys,109.77,9,Kaden Dobson,Whiteface,102.51,131.54,79.38,113.4,324.32,Single-ply,SBD,M,
Boys,109.77,DQ,Bobby Quintero,Slaton,104.69,,,,,Single-ply,SBD,M,
Boys,124.74,1,Alex Quintero #3,Slaton,124.01,224.53,151.95,219.99,596.47,Single-ply,SBD,M,
Boys,124.74,2,Jeffery Rodriguez,Sundown,113.31,226.8,120.2,226.8,573.79,Single-ply,SBD,M,
Boys,124.74,3,Dekota Golightly,Sundown,112.85,226.8,133.81,210.92,571.53,Single-ply,SBD,M,
Boys,124.74,4,Chris Castillo,Sundown,121.2,210.92,149.69,210.92,571.53,Single-ply,SBD,M,
Boys,124.74,5,Reynaldo Loredo,Wolfforth Frenship,112.13,197.31,115.67,188.24,501.22,Single-ply,SBD,M,
Boys,124.74,6,Ezyah Torres-Peralez,Tahoka,111.49,122.47,83.91,131.54,337.93,Single-ply,SBD,M,
Boys,124.74,DQ,Wesley Rose,Abernathy,123.38,147.42,,,,Single-ply,SBD,M,
Boys,139.71,1,Niko Castaneda,Meadow,135.53,256.28,154.22,233.6,644.1,Single-ply,SBD,M,
Boys,139.71,2,Karson Jones,Wolfforth Frenship,134.99,208.65,170.1,242.67,621.42,Single-ply,SBD,M,
Boys,139.71,3,Blaize Whitaker,Wolfforth Frenship,130.36,183.7,129.27,238.14,551.11,Single-ply,SBD,M,
Boys,139.71,4,Joshua Rangel,Wolfforth Frenship,133.36,192.78,120.2,235.87,548.85,Single-ply,SBD,M,
Boys,139.71,5,Chris Lea,Wolfforth Frenship,129.91,192.78,111.13,195.04,498.95,Single-ply,SBD,M,
Boys,139.71,6,Pedro Loredo,Wolfforth Frenship,131.18,213.19,95.25,163.29,471.74,Single-ply,SBD,M,
Boys,139.71,7,Eric Jaramillo,Friona,125.65,147.42,122.47,165.56,435.45,Single-ply,SBD,M,
Boys,139.71,DQ,Daigon Riley,Bovina,130.18,,,,,Single-ply,SBD,M,
Boys,139.71+,1,Konar Alaman,Sundown,163.93,249.48,145.15,213.19,607.81,Single-ply,SBD,M,
Boys,139.71+,2,Julius Alaniz,Wellman-Union,146.87,231.33,131.54,188.24,551.11,Single-ply,SBD,M,
Boys,139.71+,3,Jesus Rodriguez,Sundown,141.97,197.31,115.67,190.51,503.49,Single-ply,SBD,M,
Boys,,NS,Brock Case,Tahoka,,,,,,Single-ply,SBD,M,
Boys,,NS,Jaiden Morin,Wellman-Union,,,,,,Single-ply,SBD,M,
Boys,,NS,Ty Huston,Wellman-Union,,,,,,Single-ply,SBD,M,
Boys,,NS,Conner Barcheers,Tahoka,,,,,,Single-ply,SBD,M,
Boys,,NS,Jacob Tew,Tahoka,,,,,,Single-ply,SBD,M,
Boys,,NS,Daniel Herrera,Bovina,,,,,,Single-ply,SBD,M,
Boys,,NS,Nathan Rendon,Levelland,,,,,,Single-ply,SBD,M,
Boys,,NS,Sergio Salazar,Friona,,,,,,Single-ply,SBD,M,
