Division,WeightClassKg,Place,Name,Team,BodyweightKg,Best3SquatKg,Best3BenchKg,Best3DeadliftKg,TotalKg,Equipment,Event,Sex
Boys,51.71,1,Michael Ramsey,Ranger,51.71,142.88,86.18,183.7,412.77,Single-ply,SBD,M
Boys,51.71,2,Antonio Ponce,Glen Rose,50.8,136.08,61.23,163.29,360.61,Single-ply,SBD,M
Boys,51.71,3,Echo Jones,Strawn,50.26,113.4,58.97,154.22,326.59,Single-ply,SBD,M
Boys,55.79,4,Kyle Jaynes,Rising Star,51.89,106.59,63.5,122.47,292.57,Single-ply,SBD,M
Boys,51.71,5,Justin Sultenfuss,Little River Academy,51.71,104.33,61.23,122.47,288.03,Single-ply,SBD,M
Boys,51.71,6,Jacob Noyolla,Little River Academy,49.44,102.06,54.43,122.47,278.96,Single-ply,SBD,M
Boys,51.71,7,Tanner Resecker,Glen Rose,50.17,90.72,54.43,117.93,263.08,Single-ply,SBD,M
Boys,55.79,1,Shang Bou,Fort Worth Paschal,55.43,165.56,88.45,174.63,428.64,Single-ply,SBD,M
Boys,55.79,2,Miguel Contreras,Robinson,55.79,174.63,77.11,167.83,419.57,Single-ply,SBD,M
Boys,55.79,3,Azahel Herrera,Glen Rose,55.79,154.22,97.52,163.29,415.04,Single-ply,SBD,M
Boys,55.79,4,Cesar Herrera,Glen Rose,54.79,142.88,83.91,147.42,374.21,Single-ply,SBD,M
Boys,59.87,5,Mason Matthews,Gatesville,55.97,117.93,61.23,147.42,326.59,Single-ply,SBD,M
Boys,55.79,6,Keith Ray,Stephenville,55.11,127.01,63.5,131.54,322.05,Single-ply,SBD,M
Boys,55.79,7,Logan McMillan,Little River Academy,55.79,117.93,65.77,127.01,310.71,Single-ply,SBD,M
Boys,55.79,8,Arrington Holiday,Crowley,52.34,120.2,63.5,113.4,297.1,Single-ply,SBD,M
Boys,55.79,9,Robby Brewer,Clifton,53.43,111.13,61.23,104.33,276.69,Single-ply,SBD,M
Boys,55.79,10,Gavin Smith #2,Little River Academy,55.79,95.25,52.16,115.67,263.08,Single-ply,SBD,M
Boys,59.87,11,Jacob Spradlin,Fort Worth Western Hills,56.02,102.06,43.09,117.93,263.08,Single-ply,SBD,M
Boys,55.79,DQ,Jalem Maberry,Crowley,55.7,,,,,Single-ply,SBD,M
Boys,55.79,DQ,Cody Halcon,Glen Rose,54.52,122.47,,,,Single-ply,SBD,M
Boys,59.87,1,Quenton Winborn,Early,59.24,174.63,70.31,188.24,433.18,Single-ply,SBD,M
Boys,59.87,2,Carlin Linnabery,Glen Rose,59.51,181.44,86.18,163.29,430.91,Single-ply,SBD,M
Boys,59.87,3,Dalton Zinck,Dublin,58.06,176.9,88.45,156.49,421.84,Single-ply,SBD,M
Boys,67.13,4,Homer Ortiz,Santo,60.06,154.22,86.18,167.83,408.23,Single-ply,SBD,M
Boys,67.13,5,Anthony Garcia,Strawn,60.1,136.08,74.84,142.88,353.8,Single-ply,SBD,M
Boys,59.87,6,Daniel Rodriguez #12,Fort Worth Paschal,58.33,124.74,65.77,161.03,351.53,Single-ply,SBD,M
Boys,59.87,7,Tommy Jimenez,Gustine,59.33,131.54,74.84,142.88,349.27,Single-ply,SBD,M
Boys,59.87,8,Jonathon Taylor #2,Stephenville,57.79,136.08,68.04,142.88,347,Single-ply,SBD,M
Boys,59.87,9,Jaime Padron,Millsap,59.24,113.4,70.31,142.88,326.59,Single-ply,SBD,M
Boys,59.87,10,Brennan Cary,Glen Rose,57.79,97.52,52.16,115.67,265.35,Single-ply,SBD,M
Boys,67.13,1,Manuel Rodriguez #4,Robinson,65.68,219.99,104.33,226.8,551.11,Single-ply,SBD,M
Boys,67.13,2,Walker Shelton,Tolar,66.32,201.85,106.59,195.04,503.49,Single-ply,SBD,M
Boys,74.84,3,Armando Aguilar,Gustine,67.31,170.1,111.13,172.37,453.59,Single-ply,SBD,M
Boys,67.13,4,Dakota Martinez,Stephenville,63.96,156.49,104.33,183.7,444.52,Single-ply,SBD,M
Boys,67.13,5,Nathan Smith #9,Glen Rose,66.22,161.03,102.06,174.63,437.72,Single-ply,SBD,M
Boys,67.13,6,Xavier Olivo,Strawn,64.14,154.22,95.25,154.22,403.7,Single-ply,SBD,M
Boys,67.13,7,Justus Alaniz,Lometa,61.69,145.15,88.45,163.29,396.89,Single-ply,SBD,M
Boys,67.13,8,Tanner Dodd,Robinson,60.78,142.88,102.06,149.69,394.63,Single-ply,SBD,M
Boys,67.13,9,Devon Wilkerson,Fort Worth Western Hills,66.22,129.27,86.18,170.1,385.55,Single-ply,SBD,M
Boys,67.13,10,Jacob Riley,Dublin,66.32,127.01,77.11,181.44,385.55,Single-ply,SBD,M
Boys,67.13,11,Jake LaMotte,Little River Academy,62.23,142.88,83.91,154.22,381.02,Single-ply,SBD,M
Boys,67.13,12,Ryan Martinez,Early,62.87,142.88,92.99,142.88,378.75,Single-ply,SBD,M
Boys,67.13,13,Logan Erwin,Robinson,64.32,154.22,90.72,131.54,376.48,Single-ply,SBD,M
Boys,67.13,14,Daniel Chavez,Clifton,65.14,124.74,70.31,165.56,360.61,Single-ply,SBD,M
Boys,67.13,15,Andrew Ramstedt,Little River Academy,65.68,129.27,74.84,127.01,331.12,Single-ply,SBD,M
Boys,67.13,16,Sam Martin,Strawn,64.14,113.4,74.84,136.08,324.32,Single-ply,SBD,M
Boys,67.13,17,Isidro Bahena,Dublin,61.33,108.86,79.38,131.54,319.78,Single-ply,SBD,M
Boys,67.13,18,Ty Pauly,Lometa,62.41,113.4,63.5,131.54,308.44,Single-ply,SBD,M
Boys,67.13,19,Iain McVeigh,Little River Academy,65.14,106.59,65.77,129.27,301.64,Single-ply,SBD,M
Boys,67.13,DQ,Danny Rogalin,Little River Academy,65.32,,,,,Single-ply,SBD,M
Boys,67.13,DQ,Shawn Burger,Millsap,65.5,,,,,Single-ply,SBD,M
Boys,67.13,DQ,Tyler Skelton,Brock,66.32,,,,,Single-ply,SBD,M
Boys,74.84,1,Shakeel Jones,Fort Worth South Hills,73.94,219.99,131.54,229.06,580.6,Single-ply,SBD,M
Boys,74.84,2,Trevor Crawford,Glen Rose,72.21,183.7,120.2,204.12,508.02,Single-ply,SBD,M
Boys,74.84,3,Bryce Williams,Little River Academy,72.39,199.58,102.06,204.12,505.76,Single-ply,SBD,M
Boys,74.84,4,Jesse Luker,Comanche,73.12,188.24,111.13,199.58,498.95,Single-ply,SBD,M
Boys,74.84,5,Hunter Redmond,Glen Rose,74.84,174.63,106.59,217.72,498.95,Single-ply,SBD,M
Boys,74.84,6,Zach Smith #11,Little River Academy,72.21,181.44,102.06,188.24,471.74,Single-ply,SBD,M
Boys,74.84,7,Fidel Perez,Dublin,74.66,192.78,113.4,165.56,471.74,Single-ply,SBD,M
Boys,74.84,8,Hayden Swearengin,Glen Rose,72.21,167.83,113.4,183.7,464.93,Single-ply,SBD,M
Boys,74.84,9,Bryan Latigo,Fort Worth Western Hills,70.67,170.1,95.25,192.78,458.13,Single-ply,SBD,M
Boys,74.84,10,Logan Jordan,Fort Worth Western Hills,71.4,161.03,115.67,181.44,458.13,Single-ply,SBD,M
Boys,74.84,11,Ethan Tapia,Robinson,70.49,170.1,97.52,151.95,419.57,Single-ply,SBD,M
Boys,74.84,12,Logan Thomas,Early,74.12,156.49,104.33,156.49,417.3,Single-ply,SBD,M
Boys,74.84,13,Grayson Ebarb,Early,73.12,151.95,92.99,151.95,396.89,Single-ply,SBD,M
Boys,74.84,14,Tim Dorris,Strawn,74.84,151.95,81.65,158.76,392.36,Single-ply,SBD,M
Boys,74.84,15,Fabian Zuniga,Comanche,68.22,133.81,92.99,154.22,381.02,Single-ply,SBD,M
Boys,74.84,16,Kully Reynolds,Glen Rose,71.21,124.74,74.84,136.08,335.66,Single-ply,SBD,M
Boys,74.84,17,Ryan Guitan,Dublin,72.57,124.74,79.38,124.74,328.85,Single-ply,SBD,M
Boys,74.84,18,Nathan Martin #3,Stephenville,71.67,115.67,65.77,117.93,299.37,Single-ply,SBD,M
Boys,74.84,DQ,Elias Sanchez,Stephenville,74.84,124.74,79.38,142.88,,Single-ply,SBD,M
Boys,74.84,DQ,Reed Lane,Stephenville,69.85,133.81,,,,Single-ply,SBD,M
Boys,74.84,DQ,DeVonta Wilkerson,Fort Worth Western Hills,71.3,,,,,Single-ply,SBD,M
Boys,74.84,DQ,Brett Shaw,Early,69.13,142.88,,,,Single-ply,SBD,M
Boys,74.84,DQ,Charlie Tongate,Early,70.94,,,,,Single-ply,SBD,M
Boys,74.84,DQ,Carlos Lopez,Fort Worth Paschal,74.21,165.56,,,,Single-ply,SBD,M
Boys,74.84,DQ,Jonathan Carrillo,Fort Worth Paschal,71.12,133.81,,,,Single-ply,SBD,M
Boys,82.1,1,Chase McGhee,Gatesville,78.74,278.96,165.56,254.01,698.53,Single-ply,SBD,M
Boys,82.1,2,Luke Bowling,Santo,80.29,242.67,133.81,256.28,632.76,Single-ply,SBD,M
Boys,82.1,3,Saul Lopez,Comanche,81.65,235.87,140.61,222.26,598.74,Single-ply,SBD,M
Boys,82.1,4,Juan Villa,Robinson,79.83,219.99,145.15,197.31,562.45,Single-ply,SBD,M
Boys,82.1,5,Travis Hickman,Comanche,78.83,195.04,104.33,195.04,494.42,Single-ply,SBD,M
Boys,82.1,6,Ragan Wood,Stephenville,81.74,192.78,120.2,179.17,492.15,Single-ply,SBD,M
Boys,82.1,7,Chase Mackey,Strawn,80.29,192.78,104.33,181.44,478.54,Single-ply,SBD,M
Boys,82.1,8,Larry Reed #3,Robinson,81.19,165.56,120.2,185.97,471.74,Single-ply,SBD,M
Boys,82.1,9,Taylor Bradley,Clifton,79.38,158.76,95.25,181.44,435.45,Single-ply,SBD,M
Boys,82.1,10,Matt Adams #2,Keller,79.38,167.83,97.52,167.83,433.18,Single-ply,SBD,M
Boys,82.1,11,Danny Kettler,Millsap,79.47,158.76,102.06,172.37,433.18,Single-ply,SBD,M
Boys,82.1,12,Mike Hallman,Gatesville,79.92,167.83,92.99,172.37,433.18,Single-ply,SBD,M
Boys,82.1,13,Izmiel Torres,Dublin,77.93,149.69,97.52,181.44,428.64,Single-ply,SBD,M
Boys,82.1,14,Jose Martinez,Rising Star,77.38,145.15,102.06,165.56,412.77,Single-ply,SBD,M
Boys,82.1,DQ,Lio Garcia,Stephenville,81.65,174.63,129.27,190.51,,Single-ply,SBD,M
Boys,82.1,DQ,Garrett Crew,Stephenville,81.65,165.56,,,,Single-ply,SBD,M
Boys,82.1,DQ,Michael Ivy,Santo,79.2,145.15,,,,Single-ply,SBD,M
Boys,82.1,DQ,Garrett Gonsalves,Millsap,76.48,,,,,Single-ply,SBD,M
Boys,82.1,DQ,Angel Amezcua,Glen Rose,80.2,,,,,Single-ply,SBD,M
Boys,82.1,DQ,Kyle Turley,Crowley,80.92,,,,,Single-ply,SBD,M
Boys,82.1,DQ,Sal Lopez,Fort Worth Paschal,81.19,,,,,Single-ply,SBD,M
Boys,99.79,1,Ricky Thompson #1,Robinson,89.99,238.14,124.74,263.08,625.96,Single-ply,SBD,M
Boys,89.81,2,Rudy Rodriguez,Dublin,83.82,249.48,129.27,233.6,612.35,Single-ply,SBD,M
Boys,89.81,3,Kenneth Robinson,Fort Worth Western Hills,88.45,208.65,122.47,208.65,539.77,Single-ply,SBD,M
Boys,99.79,4,Dawson Matheny,Glen Rose,89.9,181.44,136.08,213.19,530.7,Single-ply,SBD,M
Boys,89.81,5,Cody Morrison,Early,86,215.46,90.72,215.46,521.63,Single-ply,SBD,M
Boys,89.81,6,Damian Hatcher,Dublin,87.27,197.31,124.74,188.24,510.29,Single-ply,SBD,M
Boys,89.81,7,Jason Schmidt #1,Clifton,87.63,183.7,99.79,208.65,492.15,Single-ply,SBD,M
Boys,89.81,8,Gordon Lewis,Tolar,83.55,174.63,106.59,190.51,471.74,Single-ply,SBD,M
Boys,89.81,9,Angel Madrid,Fort Worth Paschal,87.72,174.63,115.67,165.56,455.86,Single-ply,SBD,M
Boys,89.81,10,James Morgan,Comanche,86.09,170.1,102.06,181.44,453.59,Single-ply,SBD,M
Boys,89.81,11,Kody Wages,Millsap,82.83,165.56,102.06,179.17,446.79,Single-ply,SBD,M
Boys,89.81,12,Albert Alizondo,Early,87.72,174.63,108.86,142.88,426.38,Single-ply,SBD,M
Boys,89.81,13,Sam Cannon,Stephenville,84.37,124.74,74.84,158.76,358.34,Single-ply,SBD,M
Boys,89.81,14,Roberto Gurrola,Stephenville,89.36,115.67,77.11,158.76,351.53,Single-ply,SBD,M
Boys,89.81,15,Michael Robinson,Millsap,82.64,95.25,61.23,113.4,269.89,Single-ply,SBD,M
Boys,89.81,DQ,Rieken Douglas,Stephenville,89.81,140.61,81.65,161.03,,Single-ply,SBD,M
Boys,89.81,DQ,Zane Drury,Stephenville,88.9,102.06,61.23,122.47,,Single-ply,SBD,M
Boys,89.81,DQ,Ian Rehmet,Keller,87.54,181.44,,,,Single-ply,SBD,M
Boys,89.81,DQ,Alonso Barrera,Comanche,87.27,124.74,,,,Single-ply,SBD,M
Boys,99.79,1,Heath Nicholson,Glen Rose,98.16,249.48,136.08,274.42,659.98,Single-ply,SBD,M
Boys,99.79,2,Aaron Platt,Tolar,97.98,226.8,161.03,229.06,616.89,Single-ply,SBD,M
Boys,109.77,3,Ambrosio Rodriguez,Dublin,99.97,238.14,136.08,229.06,603.28,Single-ply,SBD,M
Boys,109.77,4,Mitchell Coker,Millsap,99.97,240.4,147.42,208.65,596.47,Single-ply,SBD,M
Boys,99.79,5,Blake Hampton,Keller,96.8,226.8,122.47,238.14,587.4,Single-ply,SBD,M
Boys,99.79,6,Braxton Barrios,Glen Rose,97.79,231.33,129.27,204.12,564.72,Single-ply,SBD,M
Boys,99.79,7,Jacob Martin,Stephenville,99.76,226.8,136.08,195.04,557.92,Single-ply,SBD,M
Boys,99.79,8,Houston Miller,Keller,97.79,210.92,111.13,226.8,548.85,Single-ply,SBD,M
Boys,99.79,9,Noah Perez,Stephenville,99.34,206.38,136.08,206.38,548.85,Single-ply,SBD,M
Boys,99.79,10,Justin Wade,Stephenville,99.7,161.03,136.08,226.8,523.9,Single-ply,SBD,M
Boys,99.79,11,Miguel Borraza,Glen Rose,95.44,190.51,131.54,199.58,521.63,Single-ply,SBD,M
Boys,99.79,12,Brandon Taylor #6,Gatesville,97.25,192.78,106.59,213.19,512.56,Single-ply,SBD,M
Boys,109.77,13,Drannor Brewer,Glen Rose,99.97,185.97,92.99,190.51,469.47,Single-ply,SBD,M
Boys,99.79,14,Josue Olvera,Stephenville,92.53,179.17,102.06,174.63,455.86,Single-ply,SBD,M
Boys,99.79,15,Raymond Weckworth,Early,95.35,181.44,102.06,170.1,453.59,Single-ply,SBD,M
Boys,99.79,16,Christian Garcia,Fort Worth Western Hills,90.36,170.1,106.59,174.63,451.32,Single-ply,SBD,M
Boys,99.79,17,Austin Coker,Santo,98.97,204.12,97.52,147.42,449.06,Single-ply,SBD,M
Boys,99.79,18,Conner Warmerdam,Stephenville,91.63,147.42,115.67,161.03,424.11,Single-ply,SBD,M
Boys,99.79,19,Jonathon Rios,Glen Rose,99.79,183.7,97.52,136.08,417.3,Single-ply,SBD,M
Boys,99.79,20,Bubba Bailey,Early,98.88,181.44,86.18,136.08,403.7,Single-ply,SBD,M
Boys,99.79,21,Carlos Zomora,Fort Worth Western Hills,96.89,138.35,92.99,151.95,383.29,Single-ply,SBD,M
Boys,99.79,22,Jiri Michalicek,Dublin,97.43,149.69,83.91,149.69,383.29,Single-ply,SBD,M
Boys,99.79,23,Alex Hamilton,Early,91.53,142.88,92.99,124.74,360.61,Single-ply,SBD,M
Boys,99.79,DQ,Weston Conine,Comanche,95.25,154.22,,,,Single-ply,SBD,M
Boys,99.79,DQ,DeMonte Washington,Crowley,94.17,,,,,Single-ply,SBD,M
Boys,99.79,DQ,Nick Moler,Gatesville,96.43,,,,,Single-ply,SBD,M
Boys,99.79,DQ,Brock McDaniel,Millsap,93.35,154.22,,,,Single-ply,SBD,M
Boys,109.77,1,Collin McMillan,Little River Academy,109.5,251.74,181.44,274.42,707.6,Single-ply,SBD,M
Boys,109.77,2,Dylan Hebert,Keller,103.15,242.67,165.56,247.21,655.44,Single-ply,SBD,M
Boys,109.77,3,Justin Rhyne,Gatesville,106.14,229.06,181.44,210.92,621.42,Single-ply,SBD,M
Boys,109.77,4,Alfredo Falter,Fort Worth Paschal,109.13,265.35,115.67,201.85,582.87,Single-ply,SBD,M
Boys,109.77,5,Victor Hernandez #8,Strawn,102.87,199.58,127.01,201.85,528.44,Single-ply,SBD,M
Boys,109.77,6,David Madore,Ranger,107.05,176.9,138.35,197.31,512.56,Single-ply,SBD,M
Boys,109.77,7,Austin Rudloff,Stephenville,105.23,174.63,142.88,192.78,510.29,Single-ply,SBD,M
Boys,109.77,8,Doc Gregio,Gatesville,104.05,192.78,111.13,204.12,508.02,Single-ply,SBD,M
Boys,109.77,9,Grant Isham,Stephenville,107.95,199.58,111.13,172.37,483.08,Single-ply,SBD,M
Boys,109.77,10,Kyle Waling,Lometa,109.32,163.29,108.86,172.37,444.52,Single-ply,SBD,M
Boys,109.77,11,Jacory Davis,Crowley,104.42,140.61,124.74,151.95,417.3,Single-ply,SBD,M
Boys,109.77,DQ,Matt Diaz,Stephenville,108.41,249.48,,,,Single-ply,SBD,M
Boys,109.77,DQ,Joaquin Talamantes,Stephenville,108.86,,,,,Single-ply,SBD,M
Boys,124.74,1,Skylyr Rodriguez,Keller,118.75,249.48,161.03,201.85,612.35,Single-ply,SBD,M
Boys,124.74,2,Dylan Driver,Stephenville,117.03,249.48,142.88,210.92,603.28,Single-ply,SBD,M
Boys,124.74,3,Elijah Elizondo,Ranger,118.21,183.7,154.22,226.8,564.72,Single-ply,SBD,M
Boys,124.74,4,Ben Anderson,Fort Worth Paschal,111.04,222.26,136.08,195.04,553.38,Single-ply,SBD,M
Boys,124.74,5,Marshall Wirtz,Comanche,115.03,217.72,127.01,208.65,553.38,Single-ply,SBD,M
Boys,124.74,6,Chris Bullington,Gatesville,118.3,235.87,115.67,181.44,532.97,Single-ply,SBD,M
Boys,124.74,7,Pedro Bernaz,Comanche,117.93,204.12,122.47,163.29,489.88,Single-ply,SBD,M
Boys,124.74,8,Trace Boyd,Strawn,116.21,185.97,120.2,181.44,487.61,Single-ply,SBD,M
Boys,124.74,9,Tariq Henderson,Fort Worth Paschal,119.57,174.63,88.45,136.08,399.16,Single-ply,SBD,M
Boys,124.74,10,Connor Murphy,Early,123.2,151.95,92.99,147.42,392.36,Single-ply,SBD,M
Boys,124.74,11,Caleb Gibbons,Stephenville,113.4,147.42,92.99,140.61,381.02,Single-ply,SBD,M
Boys,124.74+,12,Tim Runnels,Fort Worth Western Hills,124.83,124.74,61.23,161.03,347,Single-ply,SBD,M
Boys,124.74,DQ,Austin Northcutt,Stephenville,111.58,,,,,Single-ply,SBD,M
Boys,124.74+,1,Maea Teuhema,Keller,151.86,294.84,206.38,249.48,750.7,Single-ply,SBD,M
Boys,124.74+,2,Grayson Eaton,Little River Academy,159.3,281.23,174.63,226.8,682.66,Single-ply,SBD,M
Boys,124.74+,3,Jordan Allen,Clifton,156.22,272.16,154.22,192.78,619.15,Single-ply,SBD,M
Boys,124.74+,4,Weldon Edwards,Early,154.67,249.48,124.74,226.8,601.01,Single-ply,SBD,M
Boys,124.74+,5,Will Holmes,Robinson,132.63,206.38,163.29,215.46,585.13,Single-ply,SBD,M
Boys,124.74+,6,Connor Barnett,Robinson,136.98,226.8,124.74,204.12,555.65,Single-ply,SBD,M
Boys,124.74+,7,Bucky McDaniel,Early,134.35,217.72,138.35,170.1,526.17,Single-ply,SBD,M
Boys,124.74+,8,Jack Pirtle,Little River Academy,127.73,201.85,120.2,185.97,508.02,Single-ply,SBD,M
Boys,124.74+,DQ,Mick Williams,Stephenville,154.22,204.12,142.88,172.37,,Single-ply,SBD,M
Boys,124.74+,DQ,Jacob Lopez,Stephenville,129.73,151.95,81.65,,,Single-ply,SBD,M
