Division,WeightClassKg,Place,Name,Team,BodyweightKg,Best3SquatKg,Best3BenchKg,Best3DeadliftKg,TotalKg,Equipment,Event,Sex,BirthDate
Boys,51.71,1,Rodriguez Braulio,Nevada Community,50.26,147.42,88.45,158.76,394.63,Single-ply,SBD,M,
Boys,51.71,2,Herrera Isaac,Decatur,50.89,136.08,68.04,161.03,365.14,Single-ply,SBD,M,
Boys,51.71,3,Cuellar Jose,Celina,51.71,127.01,81.65,131.54,340.19,Single-ply,SBD,M,
Boys,51.71,4,Kerr Monte,Iowa Park,50.71,120.2,72.57,133.81,326.59,Single-ply,SBD,M,
Boys,51.71,5,Klemiuk Michael,Farmersville,49.26,136.08,61.23,127.01,324.32,Single-ply,SBD,M,
Boys,51.71,6,Grabast Kaleb,Brownwood,51.17,122.47,74.84,117.93,315.25,Single-ply,SBD,M,
Boys,51.71,7,Yarbrough Jace,Iowa Park,50.71,127.01,70.31,111.13,308.44,Single-ply,SBD,M,
Boys,51.71,8,Mccomack Rafe,Farmersville,50.53,104.33,77.11,122.47,303.91,Single-ply,SBD,M,
Boys,51.71,9,Wilson Knox,Van Alstyne,47.45,113.4,56.7,115.67,285.76,Single-ply,SBD,M,
Boys,51.71,10,Evetts James,Brownwood,49.71,108.86,56.7,113.4,278.96,Single-ply,SBD,M,
Boys,51.71,11,Wilbanks Cason,Decatur,45,108.86,49.9,115.67,274.42,Single-ply,SBD,M,
Boys,51.71,12,Cruz Jesse James,Gainesville,47.63,95.25,52.16,106.59,254.01,Single-ply,SBD,M,
Boys,51.71,DQ,Pastusek Frank,Castleberry,48.81,,,,,Single-ply,SBD,M,
Boys,55.79,1,Washington Kenaj,Kennedale,55.61,195.04,97.52,179.17,471.74,Single-ply,SBD,M,
Boys,55.79,2,Cornell Avington,Lake Worth,55.52,147.42,83.91,165.56,396.89,Single-ply,SBD,M,
Boys,55.79,3,Chavez Raphel,Gainesville,54.34,136.08,102.06,147.42,385.55,Single-ply,SBD,M,
Boys,55.79,4,Quevedo Daniel,Gainesville,54.52,158.76,88.45,127.01,374.21,Single-ply,SBD,M,
Boys,55.79,5,Huerta Valentino,Castleberry,54.7,136.08,79.38,136.08,351.53,Single-ply,SBD,M,
Boys,55.79,6,Kolstad Nathan,Nevada Community,55.61,138.35,63.5,142.88,344.73,Single-ply,SBD,M,
Boys,55.79,7,Pacheco Nathan,Van Alstyne,55.61,136.08,65.77,142.88,344.73,Single-ply,SBD,M,
Boys,55.79,8,Angeles Andrew,Krum,55.79,120.2,70.31,149.69,340.19,Single-ply,SBD,M,
Boys,55.79,9,Judkins Easton,Brownwood,54.52,106.59,81.65,120.2,308.44,Single-ply,SBD,M,
Boys,55.79,10,Robinson Brodie,Krum,53.52,92.99,54.43,90.72,238.14,Single-ply,SBD,M,
Boys,55.79,DQ,Jackson Ethan,Springtown,53.43,,,,,Single-ply,SBD,M,
Boys,55.79,DQ,Dryman Dillon,Sunnyvale,55.7,108.86,,,,Single-ply,SBD,M,
Boys,59.87,1,Parker Rowdy,Bridgeport,59.15,183.7,102.06,183.7,469.47,Single-ply,SBD,M,
Boys,59.87,2,Huerta Alexis,Gainesville,58.15,158.76,102.06,158.76,419.57,Single-ply,SBD,M,
Boys,59.87,3,Torres Gio,Van Alstyne,59.69,163.29,92.99,151.95,408.23,Single-ply,SBD,M,
Boys,59.87,4,Gam Drew,Decatur,59.87,151.95,90.72,158.76,401.43,Single-ply,SBD,M,
Boys,59.87,5,Moore Preston,Melissa,58.6,136.08,81.65,147.42,365.14,Single-ply,SBD,M,
Boys,59.87,6,Lopez Jaden,Sunnyvale,58.69,129.27,81.65,147.42,358.34,Single-ply,SBD,M,
Boys,59.87,7,Burrow Liam,Kennedale,58.24,111.13,86.18,120.2,317.51,Single-ply,SBD,M,
Boys,59.87,8,Watkins Laurrence,Kennedale,59.87,115.67,65.77,124.74,306.17,Single-ply,SBD,M,
Boys,59.87,DQ,Elizardo Cross,Argyle,59.15,176.9,83.91,,,Single-ply,SBD,M,
Boys,59.87,DQ,Fraire Javier,Gainesville,59.78,,,,,Single-ply,SBD,M,
Boys,59.87,DQ,Gordon Avery,Farmersville,59.06,,,,,Single-ply,SBD,M,
Boys,67.13,1,HIll Weston,Sanger,61.87,213.19,117.93,217.72,548.85,Single-ply,SBD,M,
Boys,67.13,2,Padron Leonel,Quinlan Ford,66.77,222.26,127.01,185.97,535.24,Single-ply,SBD,M,
Boys,67.13,3,Sustita Alex,Gainesville,65.86,206.38,117.93,199.58,523.9,Single-ply,SBD,M,
Boys,67.13,4,Macias Erick,Bridgeport,66.95,208.65,122.47,192.78,523.9,Single-ply,SBD,M,
Boys,67.13,5,Munoz Juan,Quinlan Ford,65.68,190.51,113.4,190.51,494.42,Single-ply,SBD,M,
Boys,67.13,6,Hernandez Yahir,Graham,63.41,192.78,106.59,185.97,485.34,Single-ply,SBD,M,
Boys,67.13,7,Hodges Chase,Celina,65.68,183.7,127.01,174.63,485.34,Single-ply,SBD,M,
Boys,67.13,8,White Zane,Bridgeport,67.13,185.97,90.72,183.7,460.4,Single-ply,SBD,M,
Boys,67.13,9,Rudder Colton,Bridgeport,65.68,163.29,106.59,183.7,453.59,Single-ply,SBD,M,
Boys,67.13,10,Mitchell Jacob,Kennedale,62.6,179.17,90.72,176.9,446.79,Single-ply,SBD,M,
Boys,67.13,DQ,Griffin Jeromy,Quinlan Ford,66.68,185.97,,,,Single-ply,SBD,M,
Boys,74.84,1,Blanchard Greyson,Celina,73.03,328.85,188.24,251.74,768.84,Single-ply,SBD,M,
Boys,74.84,2,Stevens Carson,Iowa Park,73.3,249.48,149.69,226.8,625.96,Single-ply,SBD,M,
Boys,74.84,3,Tull Jacob,Farmersville,72.85,231.33,136.08,222.26,589.67,Single-ply,SBD,M,
Boys,74.84,4,Herrera Arath,Kennedale,74.84,229.06,129.27,224.53,582.87,Single-ply,SBD,M,
Boys,74.84,5,Major Kason,Burkburnett,72.67,224.53,145.15,204.12,573.79,Single-ply,SBD,M,
Boys,74.84,6,Westlake Gabriel,Quinlan Ford,72.85,226.8,127.01,208.65,562.45,Single-ply,SBD,M,
Boys,74.84,7,Gomez Aaron,Argyle,72.76,197.31,158.76,197.31,553.38,Single-ply,SBD,M,
Boys,74.84,8,Coldwell Carson,Sunnyvale,73.94,226.8,120.2,199.58,546.58,Single-ply,SBD,M,
Boys,74.84,9,Todd Don,Iowa Park,73.66,213.19,120.2,208.65,542.04,Single-ply,SBD,M,
Boys,74.84,DQ,Manuel Richard,Gainesville,70.4,79.38,47.63,79.38,,Single-ply,SBD,M,
Boys,74.84,DQ,Knight Peyton,Melissa,73.3,,,,,Single-ply,SBD,M,
Boys,74.84,DQ,Cataldie Foster,Van Alstyne,74.57,,,,,Single-ply,SBD,M,
Boys,74.84,DQ,Donahue Johnathan,Decatur,73.57,188.24,,,,Single-ply,SBD,M,
Boys,82.1,1,Matehuala Ricky,Celina,80.01,312.98,190.51,235.87,739.36,Single-ply,SBD,M,
Boys,82.1,2,Reyes Ruben,Stephenville,81.1,229.06,136.08,249.48,614.62,Single-ply,SBD,M,
Boys,82.1,3,Miser CJ,Iowa Park,82.01,231.33,149.69,215.46,596.47,Single-ply,SBD,M,
Boys,82.1,4,McKnight Bryson,Iowa Park,79.29,222.26,131.54,215.46,569.26,Single-ply,SBD,M,
Boys,82.1,5,Pounds Jonathan,Iowa Park,81.37,226.8,140.61,197.31,564.72,Single-ply,SBD,M,
Boys,82.1,6,Stephenson Parker,Glen Rose,79.11,217.72,122.47,217.72,557.92,Single-ply,SBD,M,
Boys,82.1,7,Jasso Daniel,Castleberry,80.83,210.92,138.35,204.12,553.38,Single-ply,SBD,M,
Boys,82.1,8,Salas Kevin,Decatur,81.83,210.92,136.08,197.31,544.31,Single-ply,SBD,M,
Boys,82.1,9,Hinshaw Aden,Decatur,80.47,206.38,131.54,204.12,542.04,Single-ply,SBD,M,
Boys,82.1,10,Abreu Alonso,Castleberry,80.38,210.92,115.67,208.65,535.24,Single-ply,SBD,M,
Boys,82.1,11,Aldape Abel,Decatur,81.1,201.85,138.35,183.7,523.9,Single-ply,SBD,M,
Boys,82.1,12,Kidwell Cooper,Iowa Park,77.75,188.24,140.61,183.7,512.56,Single-ply,SBD,M,
Boys,89.81,1,Juarez Yovanni,Gainesville,87.36,317.51,226.8,260.82,805.13,Single-ply,SBD,M,
Boys,89.81,2,Williams Jadonavan,Quinlan Ford,89.72,260.82,167.83,254.01,682.66,Single-ply,SBD,M,
Boys,89.81,3,Salas Anthony,Decatur,85.64,249.48,145.15,226.8,621.42,Single-ply,SBD,M,
Boys,89.81,4,Jones Chance,Brownwood,87.91,219.99,158.76,204.12,582.87,Single-ply,SBD,M,
Boys,89.81,5,Barrea Billy,Anna,87.82,231.33,115.67,208.65,555.65,Single-ply,SBD,M,
Boys,89.81,6,Cook Ryder,Glen Rose,87.45,219.99,117.93,213.19,551.11,Single-ply,SBD,M,
Boys,89.81,7,Padron Jorge,Decatur,88.09,213.19,131.54,206.38,551.11,Single-ply,SBD,M,
Boys,89.81,8,Starks Eric,Nevada Community,83.19,188.24,136.08,215.46,539.77,Single-ply,SBD,M,
Boys,89.81,9,Grace Ty,Sunnyvale,84.19,204.12,124.74,199.58,528.44,Single-ply,SBD,M,
Boys,89.81,10,Yates Caden,Argyle,87.82,210.92,102.06,215.46,528.44,Single-ply,SBD,M,
Boys,89.81,DQ,Smith Kyron,Gainesville,88.45,204.12,,,,Single-ply,SBD,M,
Boys,89.81,DQ,Gaitan Joshua,Iowa Park,89.63,,,,,Single-ply,SBD,M,
Boys,99.79,1,Sales Corbyn,Iowa Park,96.43,281.23,163.29,269.89,714.41,Single-ply,SBD,M,
Boys,99.79,2,Gamino Jimmy,Decatur,95.89,272.16,167.83,263.08,703.07,Single-ply,SBD,M,
Boys,99.79,3,Pace William,Celina,97.25,288.03,183.7,226.8,698.53,Single-ply,SBD,M,
Boys,99.79,4,Roden Kaiden,Quinlan Ford,95.07,272.16,167.83,233.6,673.58,Single-ply,SBD,M,
Boys,99.79,5,Lopez Zaiden,Brownwood,94.53,233.6,149.69,222.26,605.55,Single-ply,SBD,M,
Boys,99.79,6,Isaac Gustavo,Decatur,96.8,235.87,145.15,222.26,603.28,Single-ply,SBD,M,
Boys,99.79,7,Hansen Eli,Springtown,95.35,249.48,136.08,204.12,589.67,Single-ply,SBD,M,
Boys,99.79,8,Capetillo Diego,Farmersville,93.53,233.6,120.2,226.8,580.6,Single-ply,SBD,M,
Boys,99.79,9,Owens Korbin,Decatur,91.72,215.46,142.88,210.92,569.26,Single-ply,SBD,M,
Boys,99.79,DQ,Pun Diyan,Sunnyvale,92.17,,,,,Single-ply,SBD,M,
Boys,99.79,DQ,Bennett Taylor,Stephenville,90.72,231.33,,,,Single-ply,SBD,M,
Boys,99.79,DQ,Driggers Michael,Sanger,90.45,244.94,,,,Single-ply,SBD,M,
Boys,109.77,1,Clark Zach,Iowa Park,101.24,285.76,199.58,231.33,716.68,Single-ply,SBD,M,
Boys,109.77,2,Younger Jackson,Nevada Community,106.14,244.94,170.1,235.87,650.91,Single-ply,SBD,M,
Boys,109.77,3,Box JR,Anna,104.24,233.6,158.76,249.48,641.83,Single-ply,SBD,M,
Boys,109.77,4,Vinzant Wyatt,Decatur,100.88,233.6,163.29,233.6,630.49,Single-ply,SBD,M,
Boys,109.77,5,Sun Zane,Van Alstyne,103.33,249.48,163.29,217.72,630.49,Single-ply,SBD,M,
Boys,109.77,6,Fowler Corbin,Quinlan Ford,101.33,258.55,154.22,213.19,625.96,Single-ply,SBD,M,
Boys,109.77,7,Zamora Steven,Gainesville,100.24,249.48,156.49,201.85,607.81,Single-ply,SBD,M,
Boys,109.77,8,Petree Toben,Decatur,103.51,238.14,145.15,210.92,594.21,Single-ply,SBD,M,
Boys,109.77,9,Oden Corbyn,Iowa Park,100.52,249.48,142.88,197.31,589.67,Single-ply,SBD,M,
Boys,109.77,10,Vega Carlos,Gainesville,99.97,238.14,138.35,201.85,578.33,Single-ply,SBD,M,
Boys,109.77,11,Ramey Nathan,Sunnyvale,100.7,229.06,133.81,213.19,576.06,Single-ply,SBD,M,
Boys,109.77,12,Shirley Travis,Quinlan Ford,104.24,222.26,138.35,192.78,553.38,Single-ply,SBD,M,
Boys,109.77,13,Riley Lance,Melissa,99.88,201.85,133.81,192.78,528.44,Single-ply,SBD,M,
Boys,124.74,1,Tucker Tyler,Stephenville,116.12,281.23,151.95,226.8,659.98,Single-ply,SBD,M,
Boys,124.74,2,Hopper Stevie,Nevada Community,113.67,251.74,151.95,254.01,657.71,Single-ply,SBD,M,
Boys,124.74,3,Criswell Austin,Argyle,121.65,265.35,138.35,238.14,641.83,Single-ply,SBD,M,
Boys,124.74,4,Queneau Josh,Nevada Community,113.31,272.16,176.9,190.51,639.57,Single-ply,SBD,M,
Boys,124.74,5,Brown Alyric,Sunnyvale,114.85,260.82,133.81,244.94,639.57,Single-ply,SBD,M,
Boys,124.74,6,Morrow Jeremy,Springtown,122.29,258.55,158.76,210.92,628.23,Single-ply,SBD,M,
Boys,124.74,7,Butchee Mason,Stephenville,117.03,224.53,165.56,208.65,598.74,Single-ply,SBD,M,
Boys,124.74,8,Loya Nick,Van Alstyne,113.22,238.14,140.61,215.46,594.21,Single-ply,SBD,M,
Boys,124.74,9,Klein Peyton,Glen Rose,117.48,263.08,131.54,199.58,594.21,Single-ply,SBD,M,
Boys,124.74,10,Rodriguez Fernando,Castleberry,119.48,215.46,133.81,226.8,576.06,Single-ply,SBD,M,
Boys,124.74,11,Zuniga Javier,Sanger,123.38,235.87,129.27,206.38,571.53,Single-ply,SBD,M,
Boys,124.74,DQ,Robles Jose,Gainesville,121.93,238.14,142.88,,,Single-ply,SBD,M,
Boys,139.71,1,Reemts Michael,Celina,132.45,362.87,183.7,272.16,818.73,Single-ply,SBD,M,
Boys,139.71,2,Philpot Hayden,Decatur,134.44,317.51,213.19,249.48,780.18,Single-ply,SBD,M,
Boys,139.71,3,James Brandon,Quinlan Ford,133.45,303.91,163.29,229.06,696.26,Single-ply,SBD,M,
Boys,139.71,4,Bess James,Lake Worth,136.08,233.6,154.22,204.12,591.94,Single-ply,SBD,M,
Boys,139.71,5,Gray Isaac,Brownwood,125.19,219.99,142.88,210.92,573.79,Single-ply,SBD,M,
Boys,139.71,6,Ibarra Peyton,Glen Rose,135.17,231.33,104.33,199.58,535.24,Single-ply,SBD,M,
Boys,139.71,7,Johansson Thor,Argyle,125.19,215.46,104.33,197.31,517.1,Single-ply,SBD,M,
Boys,139.71,8,Cortez Carson,Bridgeport,127.64,213.19,120.2,181.44,514.83,Single-ply,SBD,M,
Boys,139.71,9,Clark Jaylon,Nevada Community,125.83,197.31,111.13,154.22,462.66,Single-ply,SBD,M,
Boys,139.71,DQ,Hollenbeck Owen,Melissa,134.63,229.06,145.15,,,Single-ply,SBD,M,
Boys,139.71+,1,Ward Brandon,Melissa,143.61,362.87,151.95,233.6,748.43,Single-ply,SBD,M,
Boys,139.71+,2,Davis Logan,Stephenville,151.32,260.82,170.1,276.69,707.6,Single-ply,SBD,M,
Boys,139.71+,3,Elmore Jerry,Gainesville,153.13,285.76,204.12,183.7,673.58,Single-ply,SBD,M,
Boys,139.71+,4,Collins Rohan,Decatur,151.68,238.14,142.88,222.26,603.28,Single-ply,SBD,M,
Boys,139.71+,5,Garcia Hector,Lake Worth,156.67,231.33,136.08,217.72,585.13,Single-ply,SBD,M,
Boys,139.71+,6,McCann Aiden,Carrollton Ranchview,140.16,247.21,127.01,208.65,582.87,Single-ply,SBD,M,
Boys,139.71+,7,Sanchez Damian,Brownwood,146.78,235.87,147.42,188.24,571.53,Single-ply,SBD,M,
Boys,139.71+,8,Ireland Logan,Nevada Community,142.88,222.26,122.47,210.92,555.65,Single-ply,SBD,M,
Boys,139.71+,9,Saldivar Angel,Sunnyvale,158.76,192.78,122.47,188.24,503.49,Single-ply,SBD,M,
Boys,139.71+,10,Sims Davion,Fort Worth Dunbar,172.09,174.63,120.2,181.44,476.27,Single-ply,SBD,M,
Boys,139.71+,DQ,Rojo Diego,Bridgeport,164.56,,,,,Single-ply,SBD,M,
Boys,139.71+,DQ,Sharp Gavyn,Stephenville,143.52,272.16,149.69,,,Single-ply,SBD,M,
