Division,WeightClassKg,Place,Name,Team,BodyweightKg,Best3SquatKg,Best3BenchKg,Best3DeadliftKg,TotalKg,Equipment,Event,Sex,BirthDate
Boys,51.71,1,Hayden Sechelski,Anderson-Shiro,51.44,99.79,72.57,131.54,303.91,Single-ply,SBD,M,
Boys,51.71,2,Keaton Whitehead,Normangee,44.91,86.18,38.56,83.91,208.65,Single-ply,SBD,M,
Boys,59.87,1,Zach Baker,Anderson-Shiro,58.51,115.67,61.23,138.35,315.25,Single-ply,SBD,M,
Boys,59.87,2,Ethan Theriot,Anderson-Shiro,59.78,122.47,52.16,138.35,312.98,Single-ply,SBD,M,
Boys,59.87,3,Liam Gale,Normangee,59.15,117.93,68.04,120.2,306.17,Single-ply,SBD,M,
Boys,59.87,4,Javier Zarate,Normangee,56.97,95.25,52.16,106.59,254.01,Single-ply,SBD,M,
Boys,59.87,DQ,Richard Ross,Normangee,59.6,115.67,,,,Single-ply,SBD,M,
Boys,67.13,1,Gerardo Olguin,Anderson-Shiro,64.14,145.15,79.38,147.42,371.95,Single-ply,SBD,M,
Boys,67.13,2,Kyler Sanders,Franklin,64.68,115.67,83.91,136.08,335.66,Single-ply,SBD,M,
Boys,67.13,3,Zane O'Neil,Normangee,65.68,122.47,70.31,142.88,335.66,Single-ply,SBD,M,
Boys,74.84,1,Hayden Theriot,Anderson-Shiro,73.03,142.88,72.57,151.95,367.41,Single-ply,SBD,M,
Boys,74.84,2,Kaden Adams,Franklin,67.31,127.01,65.77,136.08,328.85,Single-ply,SBD,M,
Boys,74.84,3,Hunter Theis,Normangee,69.85,127.01,65.77,136.08,328.85,Single-ply,SBD,M,
Boys,82.1,1,Jarvis Haynes,Anderson-Shiro,81.56,242.67,124.74,231.33,598.74,Single-ply,SBD,M,
Boys,82.1,2,Brayden Youree,Franklin,82.1,213.19,120.2,176.9,510.29,Single-ply,SBD,M,
Boys,82.1,3,Travis Anderson,Anderson-Shiro,79.56,183.7,97.52,192.78,474,Single-ply,SBD,M,
Boys,82.1,4,Andre Nguyen,Anderson-Shiro,78.29,174.63,102.06,165.56,442.25,Single-ply,SBD,M,
Boys,82.1,5,Noah Daniel,Anderson-Shiro,79.83,156.49,92.99,165.56,415.04,Single-ply,SBD,M,
Boys,82.1,6,Major Kimbrough,Franklin,76.48,142.88,104.33,158.76,405.97,Single-ply,SBD,M,
Boys,82.1,7,Chris Tejda,Navasota,77.66,151.95,74.84,161.03,387.82,Single-ply,SBD,M,
Boys,82.1,8,Mason Kolby,Anderson-Shiro,76.38,142.88,65.77,142.88,351.53,Single-ply,SBD,M,
Boys,82.1,DQ,Cameron Zamora,Franklin,79.2,124.74,,,,Single-ply,SBD,M,
Boys,89.81,1,Duncan Benton,Anderson-Shiro,87.18,206.38,131.54,195.04,532.97,Single-ply,SBD,M,
Boys,89.81,2,Conner Seigle,Anderson-Shiro,85.28,161.03,77.11,151.95,390.09,Single-ply,SBD,M,
Boys,89.81,3,Case Wells,Normangee,84.82,129.27,77.11,142.88,349.27,Single-ply,SBD,M,
Boys,89.81,DQ,William Bagley,Anderson-Shiro,85.28,151.95,86.18,,,Single-ply,SBD,M,
Boys,99.79,1,Levi Jones,Anderson-Shiro,96.25,183.7,136.08,188.24,508.02,Single-ply,SBD,M,
Boys,99.79,2,Marcos Mendoza,Navasota,99.25,215.46,108.86,181.44,505.76,Single-ply,SBD,M,
Boys,99.79,3,Chance Risner,Navasota,96.8,174.63,115.67,183.7,474,Single-ply,SBD,M,
Boys,99.79,4,Cemion Smith,Franklin,91.08,181.44,97.52,176.9,455.86,Single-ply,SBD,M,
Boys,99.79,5,Xavier Haynes,Navasota,99.79,170.1,88.45,181.44,439.98,Single-ply,SBD,M,
Boys,99.79,6,Dagan Alford,Anderson-Shiro,93.8,120.2,70.31,142.88,333.39,Single-ply,SBD,M,
Boys,99.79,DQ,Eduardo Perez,Navasota,98.7,192.78,,,,Single-ply,SBD,M,
Boys,109.77,1,Braylon Cornish,Normangee,105.96,256.28,142.88,215.46,614.62,Single-ply,SBD,M,
Boys,109.77,2,Andres Tobias,Navasota,103.33,197.31,102.06,170.1,469.47,Single-ply,SBD,M,
Boys,109.77,3,David Romero,Navasota,100.52,156.49,86.18,185.97,428.64,Single-ply,SBD,M,
Boys,109.77,4,Nathan Villegas,Anderson-Shiro,101.06,156.49,90.72,170.1,417.3,Single-ply,SBD,M,
Boys,109.77,5,Drew Chavez,Navasota,102.15,151.95,88.45,174.63,415.04,Single-ply,SBD,M,
Boys,124.74,1,Jose Molina,Normangee,115.21,256.28,158.76,226.8,641.83,Single-ply,SBD,M,
Boys,124.74,2,Andrew Elmore,Franklin,117.03,249.48,161.03,199.58,610.08,Single-ply,SBD,M,
Boys,124.74,3,Mathew Sosa,Navasota,110.68,179.17,79.38,183.7,442.25,Single-ply,SBD,M,
Boys,124.74,4,Cyrus Fuchs,Franklin,115.48,181.44,102.06,158.76,442.25,Single-ply,SBD,M,
Boys,124.74,5,Trent Ellison,Franklin,113.58,127.01,77.11,142.88,347,Single-ply,SBD,M,
Boys,124.74,6,Darren Edwards,Normangee,116.85,77.11,72.57,81.65,231.33,Single-ply,SBD,M,
Boys,124.74,DQ,Jace Metzer,Normangee,115.85,167.83,,,,Single-ply,SBD,M,
Boys,124.74,DQ,Andrew Narro,Franklin,114.67,231.33,,,,Single-ply,SBD,M,
Boys,139.71,1,Jose Lopez,Navasota,126.1,215.46,113.4,233.6,562.45,Single-ply,SBD,M,
Boys,139.71,2,Arturo Hernandez,Anderson-Shiro,137.26,124.74,83.91,170.1,378.75,Single-ply,SBD,M,
Boys,139.71+,1,Jy'Eric Houston,Navasota,146.78,226.8,115.67,183.7,526.17,Single-ply,SBD,M,
