Division,WeightClassKg,Place,Name,Team,BodyweightKg,Best3SquatKg,Best3BenchKg,Best3DeadliftKg,TotalKg,Equipment,Event,Sex,BirthDate
Boys,51.71,1,Kody Tanimoto,Keller Central,47.9,142.88,92.99,131.54,367.41,Single-ply,SBD,M,
Boys,51.71,2,Andrew Rodriguez,Keller Fossil Ridge,51.71,111.13,70.31,131.54,312.98,Single-ply,SBD,M,
Boys,51.71,3,Brady Henning,Keller Central,51.35,83.91,49.9,83.91,217.72,Single-ply,SBD,M,
Boys,55.79,1,George Isanda,Keller Fossil Ridge,54.7,151.95,97.52,161.03,410.5,Single-ply,SBD,M,
Boys,55.79,DQ,John Doan,Mansfield Timberview,55.79,142.88,74.84,149.69,,Single-ply,SBD,M,
Boys,59.87,1,Dq Johnson,Keller Fossil Ridge,58.69,188.24,102.06,195.04,485.34,Single-ply,SBD,M,
Boys,59.87,2,Gabe Roberts,Keller Central,59.06,176.9,106.59,179.17,462.66,Single-ply,SBD,M,
Boys,59.87,3,Jaylee Chanthavee,Keller Fossil Ridge,59.51,156.49,92.99,176.9,426.38,Single-ply,SBD,M,
Boys,59.87,4,Caleb Garcia,Keller Timber Creek,59.33,163.29,83.91,163.29,410.5,Single-ply,SBD,M,
Boys,59.87,5,Andrew Trinh,Keller Fossil Ridge,59.78,149.69,90.72,158.76,399.16,Single-ply,SBD,M,
Boys,59.87,6,Vincent Nguyen,Keller Fossil Ridge,58.97,154.22,79.38,158.76,392.36,Single-ply,SBD,M,
Boys,59.87,7,Trey Wood,Keller Fossil Ridge,59.06,158.76,92.99,140.61,392.36,Single-ply,SBD,M,
Boys,59.87,8,Guy Gonzalez,Keller,58.79,133.81,79.38,147.42,360.61,Single-ply,SBD,M,
Boys,67.13,1,Nicolas Krause,Keller Central,66.95,188.24,102.06,183.7,474,Single-ply,SBD,M,
Boys,67.13,2,Brian Nguyen,Keller Fossil Ridge,65.14,185.97,92.99,172.37,451.32,Single-ply,SBD,M,
Boys,67.13,3,Nikolas Muegge,Keller Central,66.68,154.22,102.06,161.03,417.3,Single-ply,SBD,M,
Boys,67.13,4,Dustin Ford,Keller Central,66.22,174.63,70.31,154.22,399.16,Single-ply,SBD,M,
Boys,67.13,5,Jarren Hamilton,Keller Timber Creek,67.13,140.61,83.91,142.88,367.41,Single-ply,SBD,M,
Boys,74.84,1,Braden Manners,Keller Central,74.57,217.72,131.54,197.31,546.58,Single-ply,SBD,M,
Boys,74.84,2,Brody Craft,Keller Central,74.84,192.78,122.47,183.7,498.95,Single-ply,SBD,M,
Boys,74.84,DQ,Jack Estill,Keller Central,74.12,183.7,147.42,183.7,,Single-ply,SBD,M,
Boys,82.1,1,Ivan Rosas,Keller Fossil Ridge,81.37,226.8,122.47,233.6,582.87,Single-ply,SBD,M,
Boys,82.1,2,Daniel Voyles,Keller,80.97,190.51,108.86,206.38,505.76,Single-ply,SBD,M,
Boys,82.1,3,Liam Mayfield,Keller Central,80.74,192.78,111.13,197.31,501.22,Single-ply,SBD,M,
Boys,82.1,DQ,Elijah Plinsky,Keller Timber Creek,81.1,192.78,102.06,188.24,,Single-ply,SBD,M,
Boys,82.1,DQ,Vincent Young,Mansfield Timberview,82.1,226.8,136.08,210.92,,Single-ply,SBD,M,
Boys,89.81,1,Ricardo Rendon,Mansfield Timberview,88.99,204.12,124.74,197.31,526.17,Single-ply,SBD,M,
Boys,99.79,1,Landen Chambers,Keller Fossil Ridge,93.89,183.7,115.67,206.38,505.76,Single-ply,SBD,M,
Boys,99.79,2,Samuel Thornton,Keller Timber Creek,98.43,199.58,115.67,174.63,489.88,Single-ply,SBD,M,
Boys,109.77,1,Jett Lund,Keller Timber Creek,108.86,240.4,142.88,185.97,569.26,Single-ply,SBD,M,
Boys,124.74,1,Joshua Sanchez,Keller Timber Creek,124.74,226.8,106.59,206.38,539.77,Single-ply,SBD,M,
Boys,124.74,2,Aaron Escobar,Keller Timber Creek,123.74,183.7,133.81,147.42,464.93,Single-ply,SBD,M,
Boys,124.74,DQ,Edwin Martinez,Keller Timber Creek,124.19,249.48,113.4,170.1,,Single-ply,SBD,M,
Boys,124.74,DQ,Barrett Smith,Keller Timber Creek,119.75,113.4,52.16,102.06,,Single-ply,SBD,M,
Boys,139.71,1,Senon Chapple,Keller Fossil Ridge,126.73,226.8,133.81,244.94,605.55,Single-ply,SBD,M,
Boys,139.71,2,Ed Zavala,Keller Fossil Ridge,125.01,226.8,131.54,188.24,546.58,Single-ply,SBD,M,
Boys,139.71,DQ,Keshaun Johnson,Keller Fossil Ridge,139.71,,,,,Single-ply,SBD,M,
Boys,139.71+,1,Bami Badusi,Mansfield Timberview,142.88,231.33,138.35,199.58,569.26,Single-ply,SBD,M,
Boys,139.71+,DQ,Lajuan Owens,Keller Fossil Ridge,140.61,,,,,Single-ply,SBD,M,
Boys,139.71+,DQ,Tristan Voa,Mansfield Timberview,151.5,219.99,136.08,195.04,,Single-ply,SBD,M,
