Division,WeightClassKg,Place,Name,Team,BodyweightKg,Best3SquatKg,Best3BenchKg,Best3DeadliftKg,TotalKg,Equipment,Event,Sex,BirthDate
Boys,59.87,1,Alejandro Gonzalez,Freer,58.51,136.08,79.38,136.08,351.53,Single-ply,SBD,M,
Boys,67.13,1,Andrew Alaniz,Bruni,66.41,188.24,115.67,179.17,483.08,Single-ply,SBD,M,
Boys,67.13,2,Aiden Favella,Bruni,64.86,136.08,77.11,145.15,358.34,Single-ply,SBD,M,
Boys,67.13,3,Santana Gonzalez,Bruni,65.59,136.08,77.11,136.08,349.27,Single-ply,SBD,M,
Boys,74.84,1,Ramiro Ramos,Bruni,74.39,176.9,111.13,183.7,471.74,Single-ply,SBD,M,
Boys,74.84,2,Evan Vega,Freer,74.84,136.08,86.18,138.35,360.61,Single-ply,SBD,M,
Boys,82.1,1,Jake Martinez,Freer,81.19,147.42,79.38,167.83,394.63,Single-ply,SBD,M,
Boys,82.1,2,Andrew Johnson #14,Bruni,76.57,140.61,92.99,147.42,381.02,Single-ply,SBD,M,
Boys,99.79,1,Kaleb Garza,Freer,90.72,206.38,122.47,204.12,532.97,Single-ply,SBD,M,
Boys,99.79,2,Demetry Laymon,Freer,98.43,151.95,79.38,147.42,378.75,Single-ply,SBD,M,
Boys,109.77,1,Jonaven Villarreal,Bruni,108.05,222.26,154.22,204.12,580.6,Single-ply,SBD,M,
Boys,109.77,2,Ruben Contreras,Freer,107.95,124.74,63.5,113.4,301.64,Single-ply,SBD,M,
Boys,124.74,1,Alberto Ibarra,Freer,110.22,249.48,120.2,172.37,542.04,Single-ply,SBD,M,
Boys,124.74,2,Miguel Lopez,Bruni,119.84,167.83,102.06,154.22,424.11,Single-ply,SBD,M,
Boys,124.74,3,Mathew Caballeria,Freer,120.2,106.59,56.7,117.93,281.23,Single-ply,SBD,M,
Boys,139.71,1,Javier Perez,Freer,125.19,217.72,97.52,172.37,487.61,Single-ply,SBD,M,
Boys,139.71+,1,Esteban Chapa,Bruni,144.79,183.7,127.01,170.1,480.81,Single-ply,SBD,M,
