Division,WeightClassKg,Place,Name,Team,BodyweightKg,Best3SquatKg,Best3BenchKg,Best3DeadliftKg,TotalKg,Equipment,Event,Sex,BirthDate
Boys,51.71,1,Kaden Vela,Lamesa,48.72,108.86,54.43,113.4,276.69,Single-ply,SBD,M,
Boys,51.71,2,Jaime Reyna,Olton,43.18,79.38,54.43,122.47,256.28,Single-ply,SBD,M,
Boys,51.71,DQ,Michael Salazar,Sundown,51.44,127.01,,,,Single-ply,SBD,M,
Boys,55.79,1,Devin Russell,Olton,53.43,113.4,72.57,136.08,322.05,Single-ply,SBD,M,
Boys,55.79,DQ,Aiden Trevino,Lamesa,54.98,120.2,,,,Single-ply,SBD,M,
Boys,59.87,1,Kyndle Esparza,Seagraves,57.97,154.22,77.11,163.29,394.63,Single-ply,SBD,M,
Boys,59.87,2,Jason Granillo,Olton,57.06,117.93,72.57,149.69,340.19,Single-ply,SBD,M,
Boys,59.87,3,Victor Avendando,Olton,57.52,81.65,68.04,140.61,290.3,Single-ply,SBD,M,
Boys,59.87,4,Patricio Garcia,Brownfield,58.06,102.06,56.7,120.2,278.96,Single-ply,SBD,M,
Boys,59.87,5,Joshua Granillo,Olton,57.33,136.08,77.11,,213.19,Single-ply,SB,M,
Boys,67.13,1,Mark Rubalcava,Sundown,63.68,176.9,104.33,190.51,471.74,Single-ply,SBD,M,
Boys,67.13,2,Diego Gallegos,Olton,64.32,145.15,99.79,170.1,415.04,Single-ply,SBD,M,
Boys,67.13,3,Thomas Sullivan,Tahoka,67.13,133.81,83.91,165.56,383.29,Single-ply,SBD,M,
Boys,67.13,4,Jacob Amesquita,Seagraves,66.59,140.61,86.18,154.22,381.02,Single-ply,SBD,M,
Boys,67.13,DQ,Alexander Gutierrez #1,Tahoka,62.23,106.59,,,,Single-ply,SBD,M,
Boys,74.84,1,Rickey Melendez,Sundown,70.4,197.31,120.2,188.24,505.76,Single-ply,SBD,M,
Boys,74.84,2,Hunter Tindol,Sundown,73.84,170.1,106.59,195.04,471.74,Single-ply,SBD,M,
Boys,74.84,3,Jacob Casarez,Lamesa,67.31,156.49,86.18,154.22,396.89,Single-ply,SBD,M,
Boys,74.84,4,Avel Sinclair,Abernathy,70.4,131.54,95.25,151.95,378.75,Single-ply,SBD,M,
Boys,74.84,5,Eusubio Garcia,Brownfield,74.03,145.15,83.91,149.69,378.75,Single-ply,SBD,M,
Boys,74.84,6,Stephen Hernandez,Tahoka,70.31,124.74,68.04,161.03,353.8,Single-ply,SBD,M,
Boys,74.84,7,Ben Reynolds,Sundown,68.76,106.59,74.84,129.27,310.71,Single-ply,SBD,M,
Boys,74.84,8,David Hernandez,Tahoka,74.12,90.72,65.77,127.01,283.5,Single-ply,SBD,M,
Boys,74.84,9,Noah Arenas,Brownfield,73.57,95.25,61.23,120.2,276.69,Single-ply,SBD,M,
Boys,74.84,DQ,Víctor Reyes,Olton,74.84,92.99,,,,Single-ply,SBD,M,
Boys,82.1,1,Kevin Garcia,Sundown,81.1,247.21,167.83,242.67,657.71,Single-ply,SBD,M,
Boys,82.1,2,EJ Hernandez,Sundown,79.56,219.99,149.69,217.72,587.4,Single-ply,SBD,M,
Boys,82.1,3,Francisco Garza,Brownfield,78.65,206.38,120.2,188.24,514.83,Single-ply,SBD,M,
Boys,82.1,4,Isiah Flores,Sundown,80.38,188.24,92.99,185.97,467.2,Single-ply,SBD,M,
Boys,82.1,5,Jc Camacho,Sundown,79.38,172.37,108.86,179.17,460.4,Single-ply,SBD,M,
Boys,82.1,6,Marcos Ogeda,Lamesa,76.93,167.83,90.72,190.51,449.06,Single-ply,SBD,M,
Boys,82.1,7,Grady Roberts,Olton,82.1,140.61,122.47,172.37,435.45,Single-ply,SBD,M,
Boys,82.1,8,Zyren Gonzales,Lamesa,75.02,111.13,70.31,131.54,312.98,Single-ply,SBD,M,
Boys,89.81,1,Diego Hernandez,Sundown,86.45,215.46,136.08,226.8,578.33,Single-ply,SBD,M,
Boys,89.81,2,Austin Ferriera,Brownfield,88.36,195.04,127.01,199.58,521.63,Single-ply,SBD,M,
Boys,89.81,3,Jaxon Rodriguez,Sundown,84.73,156.49,83.91,183.7,424.11,Single-ply,SBD,M,
Boys,89.81,4,Landon Sehon,Sundown,88.63,158.76,106.59,151.95,417.3,Single-ply,SBD,M,
Boys,89.81,5,Brady Barcheers,Tahoka,85.91,138.35,99.79,172.37,410.5,Single-ply,SBD,M,
Boys,89.81,6,Landon Longoria,Seagraves,87.54,149.69,79.38,140.61,369.68,Single-ply,SBD,M,
Boys,89.81,7,Maddux Dominguez,Abernathy,89.18,138.35,92.99,127.01,358.34,Single-ply,SBD,M,
Boys,89.81,DQ,Stephen Jenkins,Brownfield,83.28,,,,,Single-ply,SBD,M,
Boys,99.79,1,Andrew Hernandez,Sundown,97.16,249.48,161.03,226.8,637.3,Single-ply,SBD,M,
Boys,99.79,2,Jadon McAdams,Sundown,92.26,167.83,108.86,163.29,439.98,Single-ply,SBD,M,
Boys,99.79,3,Zayden Morin,Brownfield,99.7,170.1,102.06,147.42,419.57,Single-ply,SBD,M,
Boys,99.79,4,Justin Vasquez,Lamesa,95.8,151.95,77.11,156.49,385.55,Single-ply,SBD,M,
Boys,99.79,5,Adolfo Garcia,Olton,96.34,142.88,81.65,149.69,374.21,Single-ply,SBD,M,
Boys,99.79,6,Andrew Castillo,Sundown,94.62,142.88,79.38,138.35,360.61,Single-ply,SBD,M,
Boys,99.79,7,Carlos Baltazar,Seagraves,90.08,131.54,70.31,142.88,344.73,Single-ply,SBD,M,
Boys,109.77,1,Andy Castillo,Sundown,107.23,242.67,161.03,258.55,662.24,Single-ply,SBD,M,
Boys,109.77,2,Xavyn Garcia,Sundown,108.5,204.12,136.08,158.76,498.95,Single-ply,SBD,M,
Boys,109.77,3,Austin Reyes,Sundown,106.68,158.76,90.72,163.29,412.77,Single-ply,SBD,M,
Boys,109.77,4,Jace Valdez,Brownfield,102.24,140.61,81.65,136.08,358.34,Single-ply,SBD,M,
Boys,109.77,5,Brock Case,Tahoka,107.77,111.13,61.23,145.15,317.51,Single-ply,SBD,M,
Boys,124.74,1,Jeffery Rodriguez,Sundown,115.76,231.33,145.15,229.06,605.55,Single-ply,SBD,M,
Boys,124.74,2,Dekota Golightly,Sundown,112.58,235.87,147.42,219.99,603.28,Single-ply,SBD,M,
Boys,124.74,3,Chris Castillo,Sundown,121.56,226.8,149.69,215.46,591.94,Single-ply,SBD,M,
Boys,139.71,DQ,Fernando Mendez,Brownfield,125.28,,,,,Single-ply,SBD,M,
Boys,139.71+,1,Konar Alaman,Sundown,162.75,249.48,163.29,226.8,639.57,Single-ply,SBD,M,
Boys,139.71+,2,Evan Sepeda,Lamesa,186.79,254.01,117.93,201.85,573.79,Single-ply,SBD,M,
Boys,139.71+,3,Jesus Rodriguez,Sundown,144.33,215.46,122.47,190.51,528.44,Single-ply,SBD,M,
Boys,,NS,Joe Zermeno,Olton,,,,,,Single-ply,SBD,M,
Boys,,NS,Nathaniel Luna,Brownfield,,,,,,Single-ply,SBD,M,
Boys,,NS,Eden Hernandez,Brownfield,,,,,,Single-ply,SBD,M,
Boys,,NS,Lane Bundy,Brownfield,,,,,,Single-ply,SBD,M,
Boys,,NS,Braden Conn,Brownfield,,,,,,Single-ply,SBD,M,
Boys,,NS,Jacob Lujan,Sundown,,,,,,Single-ply,SBD,M,
Boys,,NS,Ezah Torres-Perales,Tahoka,,,,,,Single-ply,SBD,M,
Boys,,NS,Chris Arrington,Tahoka,,,,,,Single-ply,SBD,M,
Boys,,NS,Jacob Tew,Tahoka,,,,,,Single-ply,SBD,M,
