Division,WeightClassKg,Place,Name,Team,BodyweightKg,Best3SquatKg,Best3BenchKg,Best3DeadliftKg,TotalKg,Equipment,Event,Sex,BirthDate
Boys,55.79,1,Carson Bhakta,Rockport-Fulton,54.34,113.4,61.23,122.47,297.1,Single-ply,SBD,M,
Boys,55.79,2,Maximus Middagh,Ingleside,53.52,90.72,72.57,117.93,281.23,Single-ply,SBD,M,
Boys,55.79,3,Jesse Martinez,Aransas Pass,54.52,95.25,68.04,117.93,281.23,Single-ply,SBD,M,
Boys,59.87,1,Antonio Pena,Ingleside,58.51,120.2,83.91,129.27,333.39,Single-ply,SBD,M,
Boys,67.13,1,Elijah Galvan,Ingleside,63.87,185.97,99.79,192.78,478.54,Single-ply,SBD,M,
Boys,67.13,2,John Chupe,Rockport-Fulton,64.95,161.03,115.67,185.97,462.66,Single-ply,SBD,M,
Boys,67.13,3,Isaac Tamayo,Ingleside,65.59,167.83,111.13,176.9,455.86,Single-ply,SBD,M,
Boys,67.13,4,Brayden Davis,Ingleside,64.68,124.74,70.31,158.76,353.8,Single-ply,SBD,M,
Boys,67.13,5,Justin Perego,Aransas Pass,62.23,113.4,72.57,158.76,344.73,Single-ply,SBD,M,
Boys,67.13,6,Andy Garcia,Aransas Pass,61.69,122.47,77.11,117.93,317.51,Single-ply,SBD,M,
Boys,67.13,7,Louis Duran,Ingleside,66.59,106.59,70.31,129.27,306.17,Single-ply,SBD,M,
Boys,67.13,8,Logan Kimbrell,Ingleside,62.05,86.18,72.57,129.27,288.03,Single-ply,SBD,M,
Boys,74.84,1,Kaden Kennedy,Rockport-Fulton,72.39,149.69,102.06,190.51,442.25,Single-ply,SBD,M,
Boys,74.84,2,Nygel Hudson,Ingleside,67.68,170.1,99.79,165.56,435.45,Single-ply,SBD,M,
Boys,74.84,3,Parker Dolejsi,Ingleside,72.85,133.81,97.52,145.15,376.48,Single-ply,SBD,M,
Boys,74.84,4,David Courvier,Ingleside,69.4,122.47,72.57,147.42,342.46,Single-ply,SBD,M,
Boys,74.84,5,Roman Davila,Ingleside,71.3,136.08,74.84,122.47,333.39,Single-ply,SBD,M,
Boys,74.84,6,Sawyer Chalk,Ingleside,74.03,115.67,79.38,129.27,324.32,Single-ply,SBD,M,
Boys,82.1,1,Jaxon Mabile,Ingleside,81.01,285.76,174.63,267.62,728.02,Single-ply,SBD,M,
Boys,82.1,2,Cristian Kane,Rockport-Fulton,80.2,201.85,111.13,208.65,521.63,Single-ply,SBD,M,
Boys,82.1,3,Austin Neil,Ingleside,81.19,204.12,113.4,204.12,521.63,Single-ply,SBD,M,
Boys,82.1,4,Kalub Schmidt,Rockport-Fulton,78.93,170.1,124.74,201.85,496.68,Single-ply,SBD,M,
Boys,89.81,1,Johnfree Carden,Rockport-Fulton,83.91,249.48,117.93,251.74,619.15,Single-ply,SBD,M,
Boys,89.81,2,Adrian Estrada,Rockport-Fulton,89.54,204.12,113.4,199.58,517.1,Single-ply,SBD,M,
Boys,99.79,1,Joey Cantu,Rockport-Fulton,96.98,294.84,170.1,251.74,716.68,Single-ply,SBD,M,
Boys,99.79,2,Phillip Krupa,Rockport-Fulton,97.52,213.19,151.95,217.72,582.87,Single-ply,SBD,M,
Boys,99.79,3,Matthias Esparza,Rockport-Fulton,94.17,226.8,131.54,215.46,573.79,Single-ply,SBD,M,
Boys,99.79,4,Jadon Sanchez,Ingleside,90.45,226.8,122.47,213.19,562.45,Single-ply,SBD,M,
Boys,99.79,5,Josh Stillman,Ingleside,99.79,151.95,92.99,170.1,415.04,Single-ply,SBD,M,
Boys,109.77,1,Eric Stapp,Ingleside,107.77,229.06,147.42,197.31,573.79,Single-ply,SBD,M,
Boys,109.77,2,Nathan Edlin,Ingleside,108.86,215.46,131.54,222.26,569.26,Single-ply,SBD,M,
Boys,109.77,3,Eian Meza,Aransas Pass,109.77,197.31,133.81,199.58,530.7,Single-ply,SBD,M,
Boys,109.77,4,Colton Kalhoefer,Rockport-Fulton,105.96,201.85,120.2,170.1,492.15,Single-ply,SBD,M,
Boys,109.77,5,Michael Canchola,Aransas Pass,106.59,136.08,90.72,131.54,358.34,Single-ply,SBD,M,
Boys,124.74,1,Arturo Gallegos III,Ingleside,116.03,288.03,147.42,244.94,680.39,Single-ply,SBD,M,
Boys,124.74,2,Logan McGrath,Ingleside,118.66,174.63,106.59,172.37,453.59,Single-ply,SBD,M,
Boys,124.74,DQ,Juan Carabajal,Ingleside,114.12,,,,,Single-ply,SBD,M,
Boys,139.71,1,Jonas Olivarez,Rockport-Fulton,135.81,249.48,183.7,204.12,637.3,Single-ply,SBD,M,
Boys,139.71,2,Martin Hernandez,Aransas Pass,139.71,181.44,97.52,170.1,449.06,Single-ply,SBD,M,
