Division,WeightClassKg,Place,Name,Team,BodyweightKg,Best3SquatKg,Best3BenchKg,Best3DeadliftKg,TotalKg,Equipment,Event,Sex,BirthDate
Boys,51.71,1,Jacob Guerrero,Yorktown,51.07,156.49,88.45,156.49,401.43,Single-ply,SBD,M,
Boys,51.71,2,Ernie Cano,Kenedy,51.3,120.2,63.5,136.08,319.78,Single-ply,SBD,M,
Boys,51.71,3,Anthony Castro,Gonzales,49.44,102.06,52.16,117.93,272.16,Single-ply,SBD,M,
Boys,51.71,4,Daniel García,Gonzales,51.71,77.11,45.36,102.06,224.53,Single-ply,SBD,M,
Boys,55.79,1,Mike Contreras,Alice,54.79,133.81,83.91,151.95,369.68,Single-ply,SBD,M,
Boys,59.87,1,Morris Brown,Kenedy,59.78,174.63,102.06,170.1,446.79,Single-ply,SBD,M,
Boys,59.87,2,Cleo Leal,Kenedy,59.78,158.76,88.45,154.22,401.43,Single-ply,SBD,M,
Boys,59.87,3,Jonathan Guerrero,Yorktown,59.42,145.15,83.91,142.88,371.95,Single-ply,SBD,M,
Boys,59.87,4,Elyjah Estrada-Nelson,San Antonio Brooks Academy,56.97,97.52,40.82,117.93,256.28,Single-ply,SBD,M,
Boys,67.13,1,Jessiah Barr,Gonzales,64.86,192.78,122.47,195.04,510.29,Single-ply,SBD,M,
Boys,67.13,2,Daniel Pena,Kenedy,66.77,174.63,95.25,172.37,442.25,Single-ply,SBD,M,
Boys,67.13,3,Ian Buchanan,Leakey,62.05,145.15,92.99,158.76,396.89,Single-ply,SBD,M,
Boys,67.13,DQ,Eden Flores,San Antonio Brooks Academy,64.14,122.47,74.84,,,Single-ply,SBD,M,
Boys,74.84,1,Jonavan Gonzalez,Dilley,71.03,183.7,102.06,195.04,480.81,Single-ply,SBD,M,
Boys,74.84,2,Kaden Deleon,Gonzales,70.85,163.29,122.47,174.63,460.4,Single-ply,SBD,M,
Boys,74.84,3,Miguel Ramos,Gonzales,73.12,163.29,106.59,183.7,453.59,Single-ply,SBD,M,
Boys,74.84,4,Logen Balcar,Floresville,74.03,138.35,104.33,142.88,385.55,Single-ply,SBD,M,
Boys,74.84,5,Gavin Munoz,San Antonio Brooks Academy,74.21,108.86,58.97,142.88,310.71,Single-ply,SBD,M,
Boys,74.84,DQ,Caleb Barrientez,Kenedy,74.39,192.78,,,,Single-ply,SBD,M,
Boys,74.84,DQ,Deuce Cano,Dilley,74.66,,,,,Single-ply,SBD,M,
Boys,74.84,DQ,Nik Garza,Alice,70.4,170.1,45.36,,,Single-ply,SBD,M,
Boys,82.1,1,Aiden Wilde,Alice,80.2,199.58,120.2,210.92,530.7,Single-ply,SBD,M,
Boys,82.1,2,AJ Vasquez,Floresville,79.83,201.85,131.54,185.97,519.36,Single-ply,SBD,M,
Boys,82.1,3,Calvin Lopez,Kenedy,81.87,201.85,133.81,163.29,498.95,Single-ply,SBD,M,
Boys,82.1,4,Damien Herrera,Yorktown,82.01,188.24,88.45,174.63,451.32,Single-ply,SBD,M,
Boys,82.1,DQ,Brian Freeman,Yorktown,82.01,,,,,Single-ply,SBD,M,
Boys,82.1,DQ,Martin Quintanilla,San Antonio Brooks Academy,78.02,,,,,Single-ply,SBD,M,
Boys,89.81,1,Dylan Farias,Kenedy,89.36,240.4,147.42,229.06,616.89,Single-ply,SBD,M,
Boys,89.81,2,Vilhelm Hansson,Floresville,84.82,190.51,124.74,183.7,498.95,Single-ply,SBD,M,
Boys,89.81,3,Blake Wright,Gonzales,83.14,201.85,113.4,174.63,489.88,Single-ply,SBD,M,
Boys,89.81,4,Ruben Guerrero,Leakey,89.81,192.78,95.25,188.24,476.27,Single-ply,SBD,M,
Boys,89.81,5,Gideon Flores,San Antonio Brooks Academy,85.73,165.56,95.25,188.24,449.06,Single-ply,SBD,M,
Boys,89.81,6,Lance Nielson,San Antonio Brooks Academy,85.64,142.88,65.77,181.44,390.09,Single-ply,SBD,M,
Boys,89.81,7,Maddox Casares,Dilley,85.46,145.15,95.25,145.15,385.55,Single-ply,SBD,M,
Boys,89.81,8,Justin Guerrero,Dilley,88.81,154.22,86.18,145.15,385.55,Single-ply,SBD,M,
Boys,89.81,9,Angel Rodriguez Solano,San Antonio Brooks Academy,88.81,113.4,65.77,174.63,353.8,Single-ply,SBD,M,
Boys,89.81,DQ,Rafael Rodriguez,Gonzales,89.81,,,,,Single-ply,SBD,M,
Boys,99.79,1,Fernando Vargas,Kenedy,98.25,249.48,138.35,231.33,619.15,Single-ply,SBD,M,
Boys,99.79,2,Owen Espinoza,Kenedy,97.52,197.31,154.22,204.12,555.65,Single-ply,SBD,M,
Boys,99.79,3,Hadon Lopez,Gonzales,98.43,204.12,113.4,172.37,489.88,Single-ply,SBD,M,
Boys,99.79,4,Aidan Hernandez,Gonzales,99.79,183.7,102.06,165.56,451.32,Single-ply,SBD,M,
Boys,99.79,5,Brennon Freeman,Yorktown,93.53,170.1,102.06,170.1,442.25,Single-ply,SBD,M,
Boys,99.79,6,Angel Garcia #11,San Antonio Brooks Academy,99.16,158.76,86.18,190.51,435.45,Single-ply,SBD,M,
Boys,99.79,7,Ramiro Cantu,Alice,96.8,158.76,95.25,167.83,421.84,Single-ply,SBD,M,
Boys,99.79,8,Anthony Silva,Dilley,94.62,142.88,124.74,147.42,415.04,Single-ply,SBD,M,
Boys,99.79,DQ,Vicente Correa,Dilley,94.26,,,,,Single-ply,SBD,M,
Boys,99.79,DQ,Lionel Martinez,Dilley,99.7,,,,,Single-ply,SBD,M,
Boys,109.77,1,Ryland Reyna,Kenedy,109.45,231.33,174.63,226.8,632.76,Single-ply,SBD,M,
Boys,109.77,2,Leo Escamilla,Kenedy,105.23,195.04,142.88,217.72,555.65,Single-ply,SBD,M,
Boys,109.77,3,Ethan Pompa,Yorktown,105.96,204.12,120.2,215.46,539.77,Single-ply,SBD,M,
Boys,109.77,4,Landon Holub,Gonzales,108.05,208.65,151.95,165.56,526.17,Single-ply,SBD,M,
Boys,109.77,5,Connor Ruppert,Yorktown,108.23,158.76,97.52,151.95,408.23,Single-ply,SBD,M,
Boys,109.77,6,Ethan Sanchez,Alice,103.15,158.76,79.38,167.83,405.97,Single-ply,SBD,M,
Boys,109.77,7,Zeke Tafoya,Leakey,100.97,156.49,81.65,129.27,367.41,Single-ply,SBD,M,
Boys,109.77,8,Isaiah Soto,San Antonio Brooks Academy,102.65,113.4,72.57,174.63,360.61,Single-ply,SBD,M,
Boys,109.77,9,Timothy Barrientes,Floresville,109.13,129.27,74.84,142.88,347,Single-ply,SBD,M,
Boys,109.77,10,Dakota Cardona,Alice,105.69,124.74,83.91,122.47,331.12,Single-ply,SBD,M,
Boys,109.77,DQ,Adrian Currazco,Dilley,108.32,,,,,Single-ply,SBD,M,
Boys,124.74,1,Joseph Luna,Kenedy,114.89,254.01,176.9,272.16,703.07,Single-ply,SBD,M,
Boys,124.74,2,Raul Pacheco,Alice,123.01,226.8,117.93,154.22,498.95,Single-ply,SBD,M,
Boys,124.74,3,Isaac Tello,San Antonio Brooks Academy,111.67,170.1,81.65,185.97,437.72,Single-ply,SBD,M,
Boys,124.74,4,Sebashan Garcia,San Antonio Brooks Academy,115.12,83.91,102.06,190.51,376.48,Single-ply,SBD,M,
Boys,139.71,1,Robert De Leon,Kenedy,130.63,226.8,192.78,226.8,646.37,Single-ply,SBD,M,
Boys,139.71,2,Hunter Hall,Yorktown,139.16,219.99,124.74,190.51,535.24,Single-ply,SBD,M,
Boys,139.71,3,Omar Borjon,Gonzales,128.73,206.38,136.08,172.37,514.83,Single-ply,SBD,M,
Boys,139.71,4,Frank Wilson,Kenedy,125.46,147.42,97.52,176.9,421.84,Single-ply,SBD,M,
Boys,139.71,5,Nicolas Moreno,Floresville,135.26,142.88,108.86,161.03,412.77,Single-ply,SBD,M,
Boys,139.71+,1,Riley Herrera,Kenedy,140.48,210.92,145.15,183.7,539.77,Single-ply,SBD,M,
Boys,139.71+,DQ,Alex Alvarez #2,Dilley,146.69,,,,,Single-ply,SBD,M,
